{
	"name": "skolverket-playground-angular",
	"$schema": "../../../../node_modules/nx/schemas/project-schema.json",
	"projectType": "application",
	"sourceRoot": "apps/skolverket/playground/angular/src",
	"prefix": "digi",
	"targets": {
		"build": {
			"executor": "@angular-devkit/build-angular:browser",
			"outputs": ["{options.outputPath}"],
			"options": {
				"outputPath": "dist/apps/skolverket/playground/angular",
				"index": "apps/skolverket/playground/angular/src/index.html",
				"main": "apps/skolverket/playground/angular/src/main.ts",
				"polyfills": "apps/skolverket/playground/angular/src/polyfills.ts",
				"tsConfig": "apps/skolverket/playground/angular/tsconfig.app.json",
				"inlineStyleLanguage": "scss",
				"assets": [
					"apps/skolverket/playground/angular/src/favicon.ico",
					"apps/skolverket/playground/angular/src/_redirects",
					"apps/skolverket/playground/angular/src/netlify.toml",
					"apps/skolverket/playground/angular/src/assets",
					{
						"glob": "**/*",
						"input": "libs/skolverket/fonts/src/assets/fonts",
						"output": "assets/fonts"
					}
				],
				"styles": ["apps/skolverket/playground/angular/src/styles.scss"],
				"scripts": []
			},
			"configurations": {
				"production": {
					"budgets": [
						{
							"type": "initial",
							"maximumWarning": "3mb",
							"maximumError": "5mb"
						},
						{
							"type": "anyComponentStyle",
							"maximumWarning": "3mb",
							"maximumError": "5mb"
						}
					],
					"fileReplacements": [
						{
							"replace": "apps/skolverket/playground/angular/src/environments/environment.ts",
							"with": "apps/skolverket/playground/angular/src/environments/environment.prod.ts"
						}
					],
					"outputHashing": "all"
				},
				"development": {
					"buildOptimizer": false,
					"optimization": false,
					"vendorChunk": true,
					"extractLicenses": false,
					"sourceMap": true,
					"namedChunks": true
				}
			},
			"defaultConfiguration": "production"
		},
		"serve": {
			"executor": "@angular-devkit/build-angular:dev-server",
			"configurations": {
				"production": {
					"browserTarget": "skolverket-playground-angular:build:production"
				},
				"development": {
					"browserTarget": "skolverket-playground-angular:build:development"
				}
			},
			"defaultConfiguration": "development"
		},
		"extract-i18n": {
			"executor": "@angular-devkit/build-angular:extract-i18n",
			"options": {
				"browserTarget": "skolverket-playground-angular:build"
			}
		},
		"lint": {
			"executor": "@nx/linter:eslint",
			"options": {
				"lintFilePatterns": [
					"apps/skolverket/playground/angular/src/**/*.ts",
					"apps/skolverket/playground/angular/src/**/*.html"
				]
			}
		},
		"test": {
			"executor": "@nx/jest:jest",
			"outputs": ["{workspaceRoot}/coverage/apps/skolverket/playground/angular"],
			"options": {
				"jestConfig": "apps/skolverket/playground/angular/jest.config.ts",
				"passWithNoTests": true
			}
		}
	},
	"tags": [],
	"implicitDependencies": ["skolverket-angular"]
}
