{
	"print": {
		"color": {
			"profile": {
				"blue": {
					"base": {
						"value": "{global.color.profile.blue.base.value}",
						"name": "Profilblå",
						"comment": "Primärfärg för varumärket. Används i grafik, bakgrund, avdelare, text, diagram.",
						"attributes": {
							"CMYK": "100-95-0-45",
							"PMS": "2758",
							"RGB-PRINT": "0-0-90",
							"RGB": "0-0-90"
						}
					}
				},
				"green": {
					"base": {
						"value": "{global.color.profile.green.base.value}",
						"name": "Profilgrön",
						"comment": "Sekundärfärg för varumärket. Används i grafik, bakgrund, avdelare, diagram.",
						"attributes": {
							"CMYK": "50-0-90-0",
							"PMS": "375",
							"RGB-PRINT": "149-194-61",
							"RGB": "126-193-61"
						}
					}
				}
			},
			"complementary": {
				"turqouise": {
					"base": {
						"value": "{global.color.complementary.turqouise.base.value}",
						"name": "Turkos",
						"comment": "Primär komplementfärg. Bakgrund, grafik, komponenter.",
						"attributes": {
							"CMYK": "100-15-65-4",
							"PMS": "-",
							"RGB-PRINT": "5-135-112",
							"RGB": "-"
						}
					}
				},
				"cerise": {
					"base": {
						"value": "{global.color.complementary.cerise.base.value}",
						"name": "Rosa",
						"comment": "Sekundär komplementfärg. Bakgrund, grafik, komponenter.",
						"attributes": {
							"CMYK": "0-89-23-0",
							"PMS": "-",
							"RGB-PRINT": "212-51-114",
							"RGB": "-"
						}
					}
				}
			},
			"background": {
				"profile-green": {
					"base": {
						"value": "#eaf3d8",
						"name": "Profilgrön 20%",
						"attributes": {
							"CMYK": "11-0-21-0",
							"PMS": "-",
							"RGB-PRINT": "234-242-216",
							"RGB": "-"
						}
					},
					"base-40": {
						"value": "#d5e6b1",
						"name": "Profilgrön 40%",
						"attributes": {
							"CMYK": "11-0-21-0",
							"PMS": "-",
							"RGB-PRINT": "234-242-216",
							"RGB": "-"
						}
					},
					"base-10": {
						"value": "#f4f8eb",
						"name": "Profilgrön 10%",
						"attributes": {
							"CMYK": "-",
							"PMS": "-",
							"RGB-PRINT": "-",
							"RGB": "-"
						}
					}
				}
			},
			"neutral": {
				"grayscale": {
					"base": {
						"value": "#000000",
						"name": "Svart 100%",
						"comment": "",
						"attributes": {
							"CMYK": "100-0-0-0",
							"PMS": "2758",
							"RGB-PRINT": "31-27-90",
							"RGB": "-"
						}
					},
					"base-85": {
						"value": "#262626",
						"name": "Svart 85%",
						"comment": "",
						"attributes": {
							"CMYK": "",
							"PMS": "",
							"RGB-PRINT": "",
							"RGB": "-"
						}
					},
					"base-65": {
						"value": "#595959",
						"name": "Svart 65%",
						"comment": "",
						"attributes": {
							"CMYK": "",
							"PMS": "",
							"RGB-PRINT": "",
							"RGB": "-"
						}
					},
					"base-40": {
						"value": "#999999",
						"name": "Svart 40%",
						"comment": "",
						"attributes": {
							"CMYK": "",
							"PMS": "",
							"RGB-PRINT": "",
							"RGB": "-"
						}
					},
					"base-20": {
						"value": "#CCCCCC",
						"name": "Svart 20%",
						"comment": "",
						"attributes": {
							"CMYK": "",
							"PMS": "",
							"RGB-PRINT": "",
							"RGB": "-"
						}
					},
					"base-10": {
						"value": "#E6E6E6",
						"name": "Svart 10%",
						"comment": "",
						"attributes": {
							"CMYK": "",
							"PMS": "",
							"RGB-PRINT": "",
							"RGB": "-"
						}
					}
				}
			}
		}
	}
}