<?xml version="1.0" encoding="UTF-8"?>
<svg width="134.594286px" height="190.781439px" viewBox="0 0 134.594286 190.781439" version="1.1" xmlns="http://www.w3.org/2000/svg" xmlns:xlink="http://www.w3.org/1999/xlink">
    <title>kontorslandskap</title>
    <defs>
        <polygon id="path-1" points="0 0 127.033986 0 127.033986 190.781439 0 190.781439"></polygon>
        <polygon id="path-3" points="0 190.781609 134.594626 190.781609 134.594626 0 0 0"></polygon>
    </defs>
    <g id="Forts-matris-grovskisser---david" stroke="none" stroke-width="1" fill="none" fill-rule="evenodd">
        <g id="Matris-annas-linjer" transform="translate(-1189.405714, -2646.218561)">
            <g id="kontorslandskap" transform="translate(1189.405374, 2646.218391)">
                <path d="M42.8822011,60.0761321 L41.9228564,60.0761321 C38.3013086,60.0761321 35.364643,57.1332356 35.364643,53.5031524 L35.364643,49.2804025 C35.364643,45.6511708 38.3013086,42.7082743 41.9228564,42.7082743" id="Fill-1" fill="#DDEBC1"></path>
                <path d="M99.5694499,60.0761321 L100.528795,60.0761321 C104.150342,60.0761321 107.087008,57.1332356 107.087008,53.5031524 L107.087008,49.2804025 C107.087008,45.6511708 104.150342,42.7082743 100.528795,42.7082743" id="Fill-3" fill="#DDEBC1"></path>
                <path d="M33.2232393,89.7253032 C30.408085,87.2660772 28.7944484,83.7109288 28.7944484,79.9709979 C28.7944484,76.2285124 30.4089347,72.673364 33.224089,70.2149895 L37.690268,75.3505823 C36.3570422,76.5146273 35.5922856,78.1989587 35.5922856,79.9709979 C35.5922856,81.7413341 36.3570422,83.4256654 37.6911178,84.5914135 L33.2232393,89.7253032 Z" id="Fill-5" fill="#DDEBC1"></path>
                <path d="M20.3329256,93.4034129 C16.613659,89.9461908 14.4799879,85.0507302 14.4799879,79.9713385 C14.4799879,74.8893923 16.613659,69.9930801 20.3329256,66.5367095 L24.9546052,71.532651 C22.6178486,73.7032074 21.277825,76.7797945 21.277825,79.9713385 C21.277825,83.162031 22.6178486,86.236915 24.9546052,88.4091745 L20.3329256,93.4034129 Z" id="Fill-7" fill="#DDEBC1"></path>
                <path d="M7.73882773,97.2319032 C2.82059257,92.8516198 0.000339891856,86.5613489 0.000339891856,79.970487 C0.000339891856,73.3821797 2.82059257,67.0910572 7.73882773,62.7099223 L12.254291,67.8020869 C8.78654437,70.8905954 6.79817702,75.3262285 6.79817702,79.970487 C6.79817702,84.6164486 8.78654437,89.0520816 12.254291,92.1397386 L7.73882773,97.2319032 Z" id="Fill-9" fill="#DDEBC1"></path>
                <path d="M124.426506,87.9607575 C122.12119,85.946883 120.79901,83.0346417 120.79901,79.9708276 C120.79901,76.9070135 122.12119,73.9947722 124.426506,71.9800462 L125.822612,73.585185 C123.980398,75.1945815 122.923334,77.52182 122.923334,79.9708276 C122.923334,82.4189837 123.980398,84.7470737 125.822612,86.3556186 L124.426506,87.9607575 Z" id="Fill-11" fill="#95C23E"></path>
                <path d="M120.571198,91.6869788 C117.32693,88.671702 115.465172,84.4012663 115.465172,79.9707424 C115.465172,75.5393671 117.32693,71.2680798 120.571198,68.2545061 L122.014888,69.8162168 C119.203133,72.4287187 117.589496,76.1294791 117.589496,79.9707424 C117.589496,83.8111542 119.203133,87.5127662 122.014888,90.1252681 L120.571198,91.6869788 Z" id="Fill-13" fill="#95C23E"></path>
                <path d="M116.920844,95.4814929 C112.5014,91.5457095 109.965807,85.8923849 109.965807,79.9708276 C109.965807,74.0492703 112.5014,68.3959457 116.920844,64.4601623 L118.331395,66.0516766 C114.364857,69.5838336 112.090131,74.6572645 112.090131,79.9708276 C112.090131,85.2843907 114.364857,90.3578216 118.331395,93.8899786 L116.920844,95.4814929 Z" id="Fill-15" fill="#95C23E"></path>
                <g id="Group-19" transform="translate(7.560639, 0.000170)">
                    <mask id="mask-2" fill="white">
                        <use xlink:href="#path-1"></use>
                    </mask>
                    <g id="Clip-18"></g>
                    <path d="M77.6542426,87.5596857 C82.7517708,89.8136923 85.755565,93.1687305 85.755565,96.7017391 C85.755565,100.165773 82.9862961,103.285789 78.5863961,105.446978 L77.6542426,87.5596857 Z M81.387105,126.989049 L81.387105,120.846944 C82.7857599,120.4331 83.8156323,119.148989 83.8156323,117.615378 C83.8156323,115.748819 82.3005643,114.230537 80.4388067,114.230537 C78.5761993,114.230537 77.0611314,115.748819 77.0611314,117.615378 C77.0611314,119.065538 77.9813886,120.295151 79.2627809,120.776267 L79.2627809,127.677939 C74.9215121,128.964604 70.1715234,129.708844 65.191258,129.802512 L65.191258,121.952234 C67.6172361,121.408956 69.0719733,119.47768 69.0719733,116.635264 C69.0719733,114.856413 68.258782,112.309479 67.1175951,110.5153 C78.9840695,109.643331 87.8798891,103.891228 87.8798891,96.7017391 C87.8798891,92.4517401 84.6415695,88.5125506 79.120876,85.8949395 C81.3420693,84.3919846 83.3737729,82.5926963 85.1488581,80.5456121 C96.1885456,85.5304836 102.771401,93.9010485 102.771401,103.017556 C102.771401,113.496515 94.0523252,122.584071 81.387105,126.989049 L81.387105,126.989049 Z M79.2627809,117.615378 L79.2627809,118.034332 C79.2160457,117.903196 79.1854555,117.762694 79.1854555,117.615378 C79.1854555,116.922231 79.7471268,116.359368 80.4388067,116.359368 C81.1296369,116.359368 81.6913082,116.922231 81.6913082,117.615378 C81.6913082,117.926188 81.5740455,118.207194 81.387105,118.426889 L81.387105,117.615378 L79.2627809,117.615378 Z M79.1854555,158.394421 L81.6913082,158.394421 L81.6913082,153.523654 L79.1854555,153.523654 L79.1854555,158.394421 Z M63.7220755,119.984342 C62.2511935,119.984342 60.4965017,119.403597 60.4965017,116.635264 C60.4965017,114.973924 61.907053,111.683603 62.8663977,110.618335 C63.2334809,110.627702 63.6005641,110.634515 63.971896,110.634515 C64.1452408,110.634515 64.3160365,110.628554 64.4876819,110.626851 C65.524352,111.451986 66.9476492,114.584774 66.9476492,116.635264 C66.9476492,119.403597 65.1929575,119.984342 63.7220755,119.984342 L63.7220755,119.984342 Z M49.5171451,87.9198839 L48.6232295,105.068898 C44.6515931,102.929848 42.1882269,99.9690695 42.1882269,96.7017391 C42.1882269,93.3739499 44.9005639,90.1662268 49.5171451,87.9198839 L49.5171451,87.9198839 Z M63.0669339,129.802512 C58.0875182,129.708844 53.3375295,128.964604 48.9962608,127.677939 L48.9962608,120.776267 C50.2776531,120.295151 51.1979103,119.065538 51.1979103,117.615378 C51.1979103,115.748819 49.6828423,114.230537 47.820235,114.230537 C45.9584773,114.230537 44.4434094,115.748819 44.4434094,117.615378 C44.4434094,119.148989 45.4732817,120.4331 46.8719367,120.846944 L46.8719367,126.989049 C34.2067164,122.584071 25.4876406,113.496515 25.4876406,103.017556 C25.4876406,94.2271855 31.7255059,86.0030842 42.1788799,80.975636 C43.9752084,82.9716283 46.0103108,84.7283399 48.2366025,86.1802029 C43.0812928,88.7969624 40.0639028,92.6271558 40.0639028,96.7017391 C40.0639028,103.803521 48.7413419,109.504531 60.3894358,110.483793 C59.3017819,112.323955 58.3721776,114.962855 58.3721776,116.635264 C58.3721776,119.784232 60.1540607,121.820246 63.0669339,122.082518 L63.0669339,129.802512 Z M46.8719367,117.615378 L46.8719367,118.426889 C46.6849962,118.207194 46.5677335,117.926188 46.5677335,117.615378 C46.5677335,116.922231 47.1294048,116.359368 47.820235,116.359368 C48.5119149,116.359368 49.0735862,116.922231 49.0735862,117.615378 C49.0735862,117.762694 49.0429959,117.903196 48.9962608,118.034332 L48.9962608,117.615378 L46.8719367,117.615378 Z M46.5677335,158.394421 L49.0735862,158.394421 L49.0735862,153.523654 L46.5677335,153.523654 L46.5677335,158.394421 Z M76.5062579,106.347048 C72.9586367,107.704391 68.636062,108.505683 63.971896,108.505683 C58.9788846,108.505683 54.3767489,107.588583 50.699119,106.052418 L51.6355211,88.0833782 C55.278312,89.8205046 59.285637,90.8006185 63.4671566,90.8006185 C67.7446956,90.8006185 71.8395427,89.7745218 75.5486126,87.9633121 L76.5062579,106.347048 Z M36.184887,59.9044631 L35.4303271,37.8940499 L91.538825,37.2153784 L90.7494261,59.941079 C90.7494261,75.5139062 78.2558512,88.6717872 63.4671566,88.6717872 C48.6793116,88.6717872 36.1857367,75.5139062 36.184887,59.9044631 L36.184887,59.9044631 Z M35.2204439,31.7672732 C35.2204439,17.8583406 46.5125011,6.54147302 60.3928347,6.54147302 L62.3616583,6.54147302 C58.515782,9.22635514 56.32178,13.5351098 56.32178,18.7294584 L56.32178,32.6579762 L35.285873,33.6755576 L35.2204439,31.7672732 Z M64.9405878,2.12883137 C66.2049855,2.12883137 67.6758675,2.56226143 68.0641939,4.44159376 C67.6903129,4.42626618 67.3155821,4.41264166 66.9374524,4.41264166 L61.8229297,4.41264166 C62.2206032,2.5588553 63.6821382,2.12883137 64.9405878,2.12883137 L64.9405878,2.12883137 Z M92.0886001,30.9285136 L58.4461041,32.5557923 L58.4461041,18.7294584 C58.4461041,12.8768752 61.6827243,8.33735517 67.1073984,6.54658222 C80.6291461,6.63684467 91.6458909,17.4632295 92.0886001,30.9285136 L92.0886001,30.9285136 Z M111.362168,32.1266199 L111.362168,34.8464149 L36.4109151,35.753297 L111.362168,32.1266199 Z M98.2661345,49.2807431 L98.2661345,53.503493 C98.2661345,56.4940753 95.8732959,58.9311614 92.9068897,59.0043932 L93.4345718,43.8164587 C96.1520072,44.1477049 98.2661345,46.4698341 98.2661345,49.2807431 L98.2661345,49.2807431 Z M28.6681786,53.503493 L28.6681786,49.2807431 C28.6681786,46.466428 30.7865546,44.1417442 33.5082386,43.8156072 L34.0291229,59.0052448 C31.061867,58.932013 28.6681786,56.4940753 28.6681786,53.503493 L28.6681786,53.503493 Z M104.885528,102.782533 C104.776763,93.0375945 97.9457865,84.1637739 86.5186223,78.8399924 C90.2582824,73.8721515 92.5967384,67.7300472 92.84316,61.1366307 C97.0110839,61.0966087 100.390459,57.689627 100.390459,53.503493 L100.390459,49.2807431 C100.390459,45.3194137 97.3654211,42.0546379 93.5084983,41.6808151 L93.6648485,37.1898324 L113.486492,36.9497003 L113.486492,29.8930501 L94.210375,30.8254782 C93.7498215,17.2886653 83.4315545,6.22129679 70.2369526,4.6204156 C69.9140554,1.74989938 67.9503302,0 64.9405878,0 C61.9962746,0 60.0520931,1.67326145 59.6663159,4.43137537 C44.950698,4.82052575 33.0961198,16.9293186 33.0969695,31.8038891 L33.4351619,41.6808151 C29.5739904,42.0503802 26.5438545,45.3160075 26.5438545,49.2807431 L26.5438545,53.503493 C26.5438545,57.689627 29.9232293,61.0966087 34.0911532,61.1366307 C34.3528699,67.9403758 36.8289821,74.2604503 40.7708779,79.3040776 C30.122066,84.5886886 23.6938613,93.1133809 23.393057,102.342291 C9.37421739,107.011244 0,119.992857 0,134.867428 L0,190.781609 L2.1243241,190.781609 L2.1243241,134.867428 C2.1243241,121.142426 10.6301178,109.130708 23.4236473,104.575009 C24.2436364,115.486547 33.6238019,124.809125 46.8719367,129.220916 L46.8719367,151.394823 L45.5055714,151.394823 C44.9184083,151.394823 44.4434094,151.87083 44.4434094,152.459239 L44.4434094,159.458836 C44.4434094,160.046394 44.9184083,160.523252 45.5055714,160.523252 L50.1357482,160.523252 C50.7220617,160.523252 51.1979103,160.046394 51.1979103,159.458836 L51.1979103,152.459239 C51.1979103,151.87083 50.7220617,151.394823 50.1357482,151.394823 L48.9962608,151.394823 L48.9962608,129.874892 C53.3664203,131.119833 58.1079117,131.84023 63.0669339,131.930492 L63.0669339,190.781609 L65.191258,190.781609 L65.191258,131.930492 C70.1511299,131.84023 74.8926213,131.119833 79.2627809,129.874892 L79.2627809,151.394823 L78.1232934,151.394823 C77.53698,151.394823 77.0611314,151.87083 77.0611314,152.459239 L77.0611314,159.458836 C77.0611314,160.046394 77.53698,160.523252 78.1232934,160.523252 L82.7534702,160.523252 C83.3406334,160.523252 83.8156323,160.046394 83.8156323,159.458836 L83.8156323,152.459239 C83.8156323,151.87083 83.3406334,151.394823 82.7534702,151.394823 L81.387105,151.394823 L81.387105,129.220916 C94.4508485,124.870436 103.744342,115.74371 104.78611,105.027173 C116.884561,109.895384 124.910257,121.692516 124.910257,134.867428 L124.910257,190.781609 L127.034581,190.781609 L127.034581,134.867428 C127.034581,120.571048 118.170202,107.797208 104.885528,102.782533 L104.885528,102.782533 Z" id="Fill-17" fill="#333333" mask="url(#mask-2)"></path>
                </g>
                <mask id="mask-4" fill="white">
                    <use xlink:href="#path-3"></use>
                </mask>
                <g id="Clip-21"></g>
                <polygon id="Fill-20" fill="#333333" mask="url(#mask-4)" points="34.2322083 190.781609 36.3565324 190.781609 36.3565324 142.082463 34.2322083 142.082463"></polygon>
                <polygon id="Fill-22" fill="#333333" mask="url(#mask-4)" points="105.954488 190.781609 108.078812 190.781609 108.078812 142.082463 105.954488 142.082463"></polygon>
                <path d="M74.915649,61.3561558 C74.915649,60.0022191 74.1899799,58.8185888 73.5509832,57.7737584 C73.0300989,56.9247804 72.5389552,56.1226368 72.5389552,55.4397077 L72.5389552,47.4378563 L70.4146311,47.4378563 L70.4146311,55.4397077 C70.4146311,56.7238188 71.0884667,57.8239988 71.7402093,58.887563 C72.2797876,59.7706022 72.7913249,60.603401 72.7913249,61.3561558 C72.7913249,63.4849872 70.9703543,64.9155619 69.2700453,64.9155619 L69.2700453,67.0443932 C71.9857812,67.0443932 74.915649,64.8695791 74.915649,61.3561558" id="Fill-23" fill="#333333" mask="url(#mask-4)"></path>
                <path d="M68.6414153,78.5422966 L68.4918629,80.6660188 C69.6177546,80.7452113 70.7691383,80.7860849 71.9154236,80.7860849 C72.5892592,80.7860849 73.2613953,80.7724603 73.9284331,80.7452113 L73.8417607,78.618083 C72.118509,78.6870571 70.3527708,78.6640658 68.6414153,78.5422966" id="Fill-24" fill="#333333" mask="url(#mask-4)"></path>
                <path d="M71.8063183,77.0363613 C74.4107396,77.0363613 76.9233902,76.7281065 78.3271436,76.1107454 L77.474015,74.1615874 C75.3038055,75.1144523 68.7014062,75.2430337 65.4138022,74.0977225 L64.7161742,76.1081908 C66.4929588,76.727255 69.1967986,77.0363613 71.8063183,77.0363613" id="Fill-25" fill="#333333" mask="url(#mask-4)"></path>
                <path d="M58.9471047,49.789108 C59.175682,49.397403 59.3158874,48.9469423 59.3158874,48.4598657 C59.3158874,48.206109 59.2776496,47.9651253 59.2173187,47.73436 C60.2718332,48.1746023 61.2065358,48.872859 61.9152104,49.7857019 L58.9471047,49.789108 Z M54.1308371,47.7318054 C54.0654079,47.9659768 54.0246209,48.2086636 54.0246209,48.4598657 C54.0246209,48.9486454 54.1665258,49.4008092 54.3968025,49.7942172 L51.4193498,49.7976233 C52.1288741,48.8771167 53.0678253,48.1737508 54.1308371,47.7318054 L54.1308371,47.7318054 Z M64.6487906,51.4334174 C64.8450782,51.135381 64.8790673,50.758152 64.738862,50.430312 C63.3529529,47.1842699 60.1868603,45.0869453 56.6740779,45.0869453 C53.144301,45.0869453 49.9756592,47.1919337 48.5999469,50.4490457 C48.461441,50.7785888 48.4962799,51.1549662 48.6925674,51.4530026 C48.8905544,51.7493359 49.221949,51.9281578 49.5779857,51.9281578 L49.5788354,51.9281578 L63.7625226,51.9128302 C64.119409,51.9128302 64.4525031,51.7323053 64.6487906,51.4334174 L64.6487906,51.4334174 Z" id="Fill-26" fill="#333333" mask="url(#mask-4)"></path>
                <path d="M83.1399273,47.6068004 C83.0456073,47.8724786 82.9912246,48.159445 82.9912246,48.4642937 C82.9912246,48.9547764 83.1390775,49.4094948 83.3905975,49.7892783 L80.1412314,49.7858722 C80.9178843,48.786173 81.9588031,48.0317151 83.1399273,47.6068004 M90.6362421,49.7977936 L87.377529,49.7943875 C87.6315981,49.4137525 87.7803008,48.9564795 87.7803008,48.4642937 C87.7803008,48.1628512 87.71997,47.8741816 87.6188522,47.6042458 C88.8101732,48.0300121 89.8587395,48.7887276 90.6362421,49.7977936 M78.2930694,51.9130005 L92.4767566,51.9283281 L92.4776063,51.9283281 C92.833643,51.9283281 93.1658873,51.7495062 93.3630246,51.4531729 C93.5601618,51.1551365 93.5950008,50.7787591 93.4564948,50.449216 C92.0799328,47.192104 88.911291,45.0871156 85.3823638,45.0871156 C81.8687317,45.0871156 78.7026391,47.1844403 77.31673,50.4304823 C77.1765246,50.7583224 77.2105138,51.1355513 77.4068014,51.4335877 C77.6030889,51.7324756 77.9361829,51.9130005 78.2930694,51.9130005" id="Fill-27" fill="#333333" mask="url(#mask-4)"></path>
            </g>
        </g>
    </g>
</svg>