<?xml version="1.0" encoding="UTF-8"?>
<svg width="194px" height="194px" viewBox="0 0 194 194" version="1.1" xmlns="http://www.w3.org/2000/svg" xmlns:xlink="http://www.w3.org/1999/xlink">
    <title>syn</title>
    <defs>
        <polygon id="path-1" points="0 106 116 106 116 0 0 0"></polygon>
    </defs>
    <g id="Forts-matris-grovskisser---david" stroke="none" stroke-width="1" fill="none" fill-rule="evenodd">
        <g id="Matris-annas-linjer" transform="translate(-345.000000, -1256.000000)">
            <g id="syn" transform="translate(345.000000, 1256.000000)">
                <g id="syn-oga" fill="#F4F4F4" fill-rule="nonzero">
                    <circle id="Oval" cx="97" cy="97" r="97"></circle>
                </g>
                <g id="Group-19" transform="translate(39.000000, 44.000000)">
                    <path d="M2.17586064,53.6248632 C7.52464456,61.9734649 29.6138972,82.9531323 59.2063385,82.9531323 C78.4806946,82.9531323 96.8095464,72.8747196 113.686117,52.9999199 C96.8095464,33.1251202 78.4806946,23.0459063 59.2063385,23.0459063 C30.6402617,23.0459063 8.43252077,43.6682343 2.17586064,53.6248632" id="Fill-1" fill="#FFFFFF"></path>
                    <path d="M78.7627447,52.9998398 C78.7627447,64.5140197 69.4357977,73.8473076 57.9312288,73.8473076 C46.4258593,73.8473076 37.0997129,64.5140197 37.0997129,52.9998398 C37.0997129,41.4856599 46.4258593,32.1523719 57.9312288,32.1523719 C69.4357977,32.1523719 78.7627447,41.4856599 78.7627447,52.9998398" id="Fill-3" fill="#DDEBC1"></path>
                    <path d="M2.17586064,53.6248632 C7.52464456,61.9734649 29.6138972,82.9531323 59.2063385,82.9531323 C78.4806946,82.9531323 96.8095464,72.8747196 113.686117,52.9999199 C96.8095464,33.1251202 78.4806946,23.0459063 59.2063385,23.0459063 C30.6402617,23.0459063 8.43252077,43.6682343 2.17586064,53.6248632 M59.2063385,84.9561557 C28.7276371,84.9561557 5.88262154,63.7938125 0.140744831,54.1400408 C-0.046594705,53.8243643 -0.046594705,53.4309705 0.140744831,53.115294 C6.11719626,43.0681285 29.2856528,21.0428828 59.2063385,21.0428828 C79.1403859,21.0428828 98.0232504,31.4057249 115.329741,51.8421723 L115.760462,52.3501391 C116.079099,52.7243039 116.079099,53.2747347 115.760462,53.6488995 L115.329741,54.1576674 C98.0232504,74.5941149 79.1403859,84.9561557 59.2063385,84.9561557" id="Fill-5" fill="#333333"></path>
                    <path d="M57.9994396,73.8471474 C46.5124838,73.8471474 37.1679237,64.4954316 37.1679237,52.9996795 C37.1679237,48.8822646 38.3664164,44.900254 40.6329045,41.4838972 L42.299746,42.5919698 C40.2518207,45.6782283 39.1694145,49.2772608 39.1694145,52.9996795 C39.1694145,63.3905639 47.6165061,71.844124 57.9994396,71.844124 C68.3831737,71.844124 76.8302653,63.3905639 76.8302653,52.9996795 C76.8302653,42.6087952 68.3831737,34.1552351 57.9994396,34.1552351 L57.9994396,32.1522116 C69.4863954,32.1522116 78.8317561,41.5039274 78.8317561,52.9996795 C78.8317561,64.4954316 69.4863954,73.8471474 57.9994396,73.8471474" id="Fill-7" fill="#333333"></path>
                    <polygon id="Fill-9" fill="#333333" points="25.6769649 22.7207755 16.5445628 12.7320983 18.0208624 11.380458 27.1532645 21.3691353"></polygon>
                    <mask id="mask-2" fill="white">
                        <use xlink:href="#path-1"></use>
                    </mask>
                    <g id="Clip-12"></g>
                    <polygon id="Fill-11" fill="#333333" mask="url(#mask-2)" points="56.998454 12.8337717 58.9999448 12.8337717 58.9999448 -0.000801209373 56.998454 -0.000801209373"></polygon>
                    <polygon id="Fill-13" fill="#333333" mask="url(#mask-2)" points="90.6222179 21.7481875 89.2884245 20.2547332 98.4208265 12.0872048 99.75462 13.5806591"></polygon>
                    <polygon id="Fill-14" fill="#333333" mask="url(#mask-2)" points="18.0204621 94.619542 16.5441625 93.2679017 25.6765646 83.2792245 27.1528642 84.6308647"></polygon>
                    <polygon id="Fill-15" fill="#333333" mask="url(#mask-2)" points="56.998454 106 58.9999448 106 58.9999448 93.1654271 56.998454 93.1654271"></polygon>
                    <polygon id="Fill-16" fill="#333333" mask="url(#mask-2)" points="98.4209867 93.9122343 89.2885846 85.7455072 90.622378 84.2512517 99.7547801 92.41878"></polygon>
                    <path d="M64.8482207,52.9998398 C64.8482207,56.8232109 61.7515142,59.9222887 57.9310687,59.9222887 C54.1106231,59.9222887 51.0139166,56.8232109 51.0139166,52.9998398 C51.0139166,49.1764686 54.1106231,46.0773908 57.9310687,46.0773908 C61.7515142,46.0773908 64.8482207,49.1764686 64.8482207,52.9998398" id="Fill-17" fill="#95C23E" mask="url(#mask-2)"></path>
                    <path d="M57.9994396,46.0285971 C54.1581785,46.0285971 51.0334511,49.1557173 51.0334511,52.9999199 C51.0334511,56.8441224 54.1581785,59.9712426 57.9994396,59.9712426 C61.8407007,59.9712426 64.965428,56.8441224 64.965428,52.9999199 C64.965428,49.1557173 61.8407007,46.0285971 57.9994396,46.0285971 M57.9994396,61.9742661 C53.0541562,61.9742661 49.0319604,57.948189 49.0319604,52.9999199 C49.0319604,48.0508496 53.0541562,44.0255737 57.9994396,44.0255737 C62.944723,44.0255737 66.9669188,48.0508496 66.9669188,52.9999199 C66.9669188,57.948189 62.944723,61.9742661 57.9994396,61.9742661" id="Fill-18" fill="#333333" mask="url(#mask-2)"></path>
                </g>
            </g>
        </g>
    </g>
</svg>