<?xml version="1.0" encoding="UTF-8"?>
<svg width="126.968381px" height="193.99983px" viewBox="0 0 126.968381 193.99983" version="1.1" xmlns="http://www.w3.org/2000/svg" xmlns:xlink="http://www.w3.org/1999/xlink">
    <title>tandvark</title>
    <defs>
        <polygon id="path-1" points="0 0 126.968381 0 126.968381 193.99983 0 193.99983"></polygon>
        <polygon id="path-3" points="0 194 126.96872 194 126.96872 0 0 0"></polygon>
    </defs>
    <g id="Forts-matris-grovskisser---david" stroke="none" stroke-width="1" fill="none" fill-rule="evenodd">
        <g id="Matris-annas-linjer" transform="translate(-1197.031619, -2293.000000)">
            <g id="tandvark" transform="translate(1197.031280, 2293.000000)">
                <path d="M89.487724,85.3486183 C89.487724,99.2537733 78.2507799,110.525621 64.3886832,110.525621 C50.5265865,110.525621 39.2896425,99.2537733 39.2896425,85.3486183 C39.2896425,71.4434632 50.5265865,60.171615 64.3886832,60.171615 C78.2507799,60.171615 89.487724,71.4434632 89.487724,85.3486183" id="Fill-1" fill="#DDEBC1"></path>
                <g id="Group-5" transform="translate(0.000340, 0.000000)">
                    <mask id="mask-2" fill="white">
                        <use xlink:href="#path-1"></use>
                    </mask>
                    <g id="Clip-4"></g>
                    <path d="M64.4262218,125.889957 C49.9543355,125.889957 37.517346,116.819489 35.020436,104.630967 C37.670218,104.090845 40.4108739,103.80545 43.2169251,103.80545 L45.9592796,103.80545 C46.5452891,103.80545 47.020891,103.329222 47.020891,102.740541 L47.020891,89.1608219 C51.3064038,91.9321409 56.4004398,93.5482467 61.8673137,93.5482467 L65.0997081,93.5482467 C71.1661801,93.5482467 77.0831773,91.5146966 81.8689213,87.8139251 L81.8324019,102.737985 C81.8315526,103.020825 81.9436588,103.29259 82.1423924,103.492792 C82.3419754,103.692995 82.6120493,103.80545 82.8940133,103.80545 L83.7500967,103.80545 C87.1965118,103.80545 90.5435602,104.239081 93.7445308,105.044152 C91.0548322,116.995838 78.6518142,125.889957 64.4262218,125.889957 L64.4262218,125.889957 Z M36.5100891,65.9815878 L36.5100891,45.0599607 C36.5100891,43.6244635 36.6366332,42.1906701 36.8735848,40.7824345 C43.5855166,40.4084385 50.1157005,35.852332 50.6643412,27.4335879 C53.1111431,27.514521 56.1252701,26.7648251 58.425145,24.8548044 C60.7921137,26.2025531 64.6580777,26.9241354 67.3808986,26.9241354 C71.2239318,26.9241354 74.6856341,25.2867315 77.1341346,22.6806863 C85.3671431,27.1379692 90.4569327,35.6325348 90.4569327,45.0599607 L90.4569327,65.4738392 C90.4569327,65.7183423 90.5410123,65.9551781 90.6955829,66.1451578 C92.390764,68.2374909 93.3241327,70.8767613 93.3241327,73.5773704 C93.3241327,80.0204954 88.2963412,85.1976568 81.8774142,85.3629306 C81.6090389,85.369746 81.3661422,85.4762369 81.183545,85.6483262 C76.6661763,89.369544 70.9564057,91.4184289 65.0997081,91.4184289 L61.8673137,91.4184289 C47.884618,91.4184289 36.5100891,80.0077165 36.5100891,65.9815878 L36.5100891,65.9815878 Z M25.3954427,27.0791862 C25.3954427,21.8900979 28.8588436,17.3092856 33.8314313,15.9036058 C34.2221043,15.8363035 34.5482313,15.5534637 34.6662825,15.164133 C36.3173005,9.73224544 41.2346844,6.08258951 46.9019905,6.08258951 C54.3978161,6.08258951 59.6336834,10.8312315 59.6336834,17.632166 L61.7569062,17.632166 C61.7569062,13.679224 60.2027071,10.2681076 57.5775545,7.84096716 C59.5750825,4.33869462 63.2992152,2.1296475 67.3808986,2.1296475 C73.6104341,2.1296475 78.6781422,7.21309684 78.6781422,13.4619825 C78.6781422,19.7108682 73.6104341,24.7943176 67.3808986,24.7943176 C64.7608417,24.7943176 60.8566597,24.0079888 59.0468246,22.7352096 C58.6315223,22.3458789 57.9801175,22.3543982 57.5750066,22.7565078 C55.3770464,24.941701 52.0843526,25.5712751 49.7980664,25.2228369 C49.4965687,25.1810925 49.1823318,25.2671371 48.9470787,25.4690439 C48.7135242,25.6709506 48.5784872,25.9657174 48.5784872,26.2758189 C48.5784872,34.765273 42.106055,38.6500608 36.0616645,38.6858418 L36.063363,38.6534685 C30.0818199,38.1823528 25.3954427,33.0980515 25.3954427,27.0791862 L25.3954427,27.0791862 Z M34.3868664,45.0599607 L34.3868664,49.1662496 L32.3358332,49.1662496 C31.6886749,49.1662496 31.0635981,49.2761482 30.4648493,49.4635722 L30.4648493,39.139067 C31.7778502,39.8589455 33.2156967,40.3752133 34.7461156,40.6290876 C34.5108626,42.0892907 34.3868664,43.5741998 34.3868664,45.0599607 L34.3868664,45.0599607 Z M34.3868664,64.6500257 L32.3358332,64.6500257 C29.4295659,64.6500257 27.065145,61.6555017 27.065145,57.9726206 C27.065145,54.2914434 29.4295659,51.2960675 32.3358332,51.2960675 L34.3868664,51.2960675 L34.3868664,64.6500257 Z M82.0846408,7.95256961 C89.6067943,7.95256961 95.7267716,14.0924086 95.7267716,21.6370755 L95.7267716,49.4346067 C95.1568986,49.2659251 94.5623962,49.1662496 93.9492095,49.1662496 L92.5801555,49.1662496 L92.5801555,45.0599607 C92.5801555,34.9774029 87.2092512,25.8796728 78.4929972,21.0006859 C79.949528,18.8487179 80.8013649,16.2537478 80.8013649,13.4619825 C80.8013649,11.5826312 80.4123905,9.79273227 79.7159735,8.16640333 C80.4947716,8.02924306 81.2871583,7.95256961 82.0846408,7.95256961 L82.0846408,7.95256961 Z M99.2207469,57.9726206 C99.2207469,61.6555017 96.8563261,64.6500257 93.9492095,64.6500257 L92.5801555,64.6500257 L92.5801555,51.2960675 L93.9492095,51.2960675 C96.8563261,51.2960675 99.2207469,54.2914434 99.2207469,57.9726206 L99.2207469,57.9726206 Z M83.9581725,101.676484 L83.9938427,87.2772109 C90.5588474,86.1381843 95.4473555,80.4788322 95.4473555,73.5773704 C95.4473555,71.1894185 94.8214294,68.8457669 93.6697934,66.7798436 L93.9492095,66.7798436 C98.0266464,66.7798436 101.34397,62.8294574 101.34397,57.9726206 C101.34397,54.8230459 99.9434919,52.062802 97.8499943,50.5054791 L97.8499943,21.6370755 C97.8499943,12.9176011 90.777964,5.82275172 82.0846408,5.82275172 C80.9296076,5.82275172 79.7839166,5.95480043 78.6654028,6.20356316 C76.2763526,2.47808571 72.1156853,-0.000170385431 67.3808986,-0.000170385431 C62.6325232,-0.000170385431 58.2884095,2.51642243 55.8832227,6.52729548 C53.4372701,4.89755883 50.3662408,3.95277162 46.9019905,3.95277162 C40.4898578,3.95277162 34.9015355,7.96023696 32.8165308,13.9859177 C27.1687583,15.7885956 23.2722199,21.0909902 23.2722199,27.0791862 C23.2722199,31.3243392 25.2510635,35.1656788 28.3416265,37.7035698 L28.3416265,50.5736333 C26.2990863,52.1420312 24.9419223,54.8699019 24.9419223,57.9726206 C24.9419223,62.8294574 28.2583962,66.7798436 32.3358332,66.7798436 L34.4072493,66.7798436 C34.6484474,75.2335167 38.6995564,82.7424027 44.8976682,87.6401319 L44.8976682,101.675632 L43.2169251,101.675632 C19.3875716,101.675632 0,121.123425 0,145.028501 L0,193.99983 L2.12322275,193.99983 L2.12322275,145.028501 C2.12322275,125.853324 15.2421915,109.69397 32.9498692,105.108046 C35.6709915,118.249023 48.9717081,128.019775 64.4262218,128.019775 C79.8476133,128.019775 92.8289972,118.667319 95.7964133,105.615795 C112.596201,110.793808 124.845498,126.501641 124.845498,145.028501 L124.845498,193.99983 L126.96872,193.99983 L126.96872,145.028501 C126.96872,121.193283 107.693255,101.78979 83.9581725,101.676484 L83.9581725,101.676484 Z" id="Fill-3" fill="#333333" mask="url(#mask-2)"></path>
                </g>
                <path d="M82.8944379,163.5419 C77.677255,163.5419 73.4325081,159.283968 73.4325081,154.05058 L73.4325081,142.288874 L92.0718559,142.288874 L92.3572171,154.063359 C92.3504227,159.291636 88.1082237,163.5419 82.8944379,163.5419 M93.1071393,140.159056 L72.3708967,140.159056 C71.7848872,140.159056 71.3092853,140.635283 71.3092853,141.223965 L71.3092853,154.05058 C71.3092853,160.458776 76.5069346,165.671718 82.8944379,165.671718 C89.2827905,165.671718 94.4804398,160.458776 94.4804398,154.05058 L94.4804398,154.025022 L94.1687507,141.197555 C94.1551621,140.619948 93.6838066,140.159056 93.1071393,140.159056" id="Fill-6" fill="#333333"></path>
                <path d="M53.2041403,47.159876 L53.6168948,45.0709506 C53.3697517,45.0206869 47.4986161,43.896995 42.4215659,47.101093 L43.5511204,48.9046228 C47.897782,46.1614174 53.1523336,47.1496529 53.2041403,47.159876" id="Fill-8" fill="#333333"></path>
                <path d="M65.7527264,62.6443336 C66.7633805,62.8760578 67.3162677,63.4732587 67.2296402,64.241697 C67.1684914,64.7877823 66.7540383,65.3747601 65.9888288,65.3747601 C62.9203473,65.3747601 62.8744857,67.6153285 62.8591985,68.3513936 L64.9824212,68.3948419 C64.9977084,67.6238478 65.0002563,67.504578 65.9888288,67.504578 C67.7332686,67.504578 69.1422392,66.2326508 69.3401236,64.4802366 C69.5142279,62.9280253 68.6190772,61.1168282 66.2257805,60.5673352 C64.0634904,60.0715136 63.2957331,57.5625881 63.2957331,55.5648189 L63.2957331,51.2148789 L61.1725103,51.2148789 L61.1725103,55.5648189 C61.1725103,59.2272538 62.9704554,62.0062401 65.7527264,62.6443336" id="Fill-10" fill="#333333"></path>
                <path d="M44.2890677,51.7872035 L44.8912136,53.828421 C45.5315776,53.6384412 46.1812838,53.4970213 46.8335378,53.3896785 C46.8063606,53.5089483 46.7851283,53.6316258 46.7817312,53.757711 C46.7426639,54.9214435 47.7150999,55.8841212 48.9516648,55.9088271 C50.1890791,55.9326811 51.2235132,55.009192 51.2617312,53.8463115 C51.2685255,53.6512201 51.2379511,53.4655 51.1912402,53.2857434 C52.0651587,53.3871227 52.9331321,53.5532485 53.7858184,53.8028632 L54.3794715,51.758238 C51.0859283,50.7947084 47.5961994,50.8057834 44.2890677,51.7872035" id="Fill-12" fill="#333333"></path>
                <path d="M82.9060732,48.9044524 L84.0356277,47.1009226 C78.9577282,43.8968246 73.0857433,45.0205165 72.8394495,45.0707802 L73.2530533,47.1597056 C73.3031613,47.1486305 78.557713,46.160395 82.9060732,48.9044524" id="Fill-14" fill="#333333"></path>
                <path d="M75.2657835,53.285999 C75.2190726,53.4657556 75.1884982,53.6514757 75.1952925,53.8457151 C75.2335105,55.0094476 76.2679446,55.9329366 77.5053589,55.9082308 C78.7427731,55.8843768 79.7143598,54.9216991 79.6752925,53.7579666 C79.6710461,53.6318814 79.6506631,53.5100558 79.6243352,53.3899341 C80.2757399,53.4972769 80.9254461,53.6386968 81.56581,53.8286766 L82.167956,51.7874591 C78.8616736,50.8026313 75.3710954,50.794964 72.0775522,51.7584936 L72.6712053,53.8031188 C73.5238916,53.5535041 74.391865,53.3873783 75.2657835,53.285999" id="Fill-16" fill="#333333"></path>
                <polygon id="Fill-18" fill="#333333" points="70.5681107 75.3724661 56.8571875 74.3143725 56.6949733 76.437375 70.4058965 77.4954685"></polygon>
                <mask id="mask-4" fill="white">
                    <use xlink:href="#path-3"></use>
                </mask>
                <g id="Clip-21"></g>
                <polygon id="Fill-20" fill="#333333" mask="url(#mask-4)" points="60.4337137 81.1980291 66.5341573 81.1980291 66.5341573 79.0682113 60.4337137 79.0682113"></polygon>
                <path d="M73.0471856,70.7142988 L73.0471856,72.8441167 C74.7585031,72.8441167 76.1496387,74.2404253 76.1496387,75.9553546 C76.1496387,77.6719878 74.7585031,79.0682965 73.0471856,79.0682965 L73.0471856,81.1981143 C75.9288235,81.1981143 78.2728614,78.8459435 78.2728614,75.9553546 C78.2728614,73.0656177 75.9288235,70.7142988 73.0471856,70.7142988" id="Fill-22" fill="#333333" mask="url(#mask-4)"></path>
                <polygon id="Fill-23" fill="#333333" mask="url(#mask-4)" points="109.297902 81.4657899 98.8380573 78.177351 98.202789 80.2083454 108.662634 83.4976361"></polygon>
                <polygon id="Fill-24" fill="#333333" mask="url(#mask-4)" points="98.9505031 76.797655 109.972577 75.9082431 109.801021 73.7852406 98.779796 74.6746525"></polygon>
                <polygon id="Fill-25" fill="#333333" mask="url(#mask-4)" points="96.1064887 83.084707 104.50341 90.2528221 105.880108 88.6307528 97.4831864 81.4626377"></polygon>
            </g>
        </g>
    </g>
</svg>