{
	"global": {
		"color": {
			"profile": {
				"purple": {
					"base": {
						"value": "#692859",
						"name": "primärlila",
						"comment": "Grundläggande profilfärg"
					},
					"extra-dark": {
						"value": "#3D1B3D",
						"name": "primärlila extra mörk",
						"comment": ""
					},
					"dark": {
						"value": "#5A235A",
						"name": "primärlila mörk",
						"comment": ""
					},
					"opacity15": {
						"value": "#E8DFE6",
						"name": "primärlila opacitet 15%",
						"comment": ""
					},
					"opacity5": {
						"value": "#F8F4F8",
						"name": "primärlila opacitet 5%",
						"comment": ""
					},
					"opacity60": {
						"value": "#A57E9B",
						"name": "primärlila opacitet 60%",
						"comment": ""
					}
				},
				"blue": {
					"base": {
						"value": "#DCEAEA",
						"name": "Blå",
						"comment": "Bakgrund 1"
					},
					"opacity50": {
						"value": "#EDF4F4",
						"name": "Blå opacitet 50%",
						"comment": ""
					},
					"opacity25": {
						"value": "#F6FAFA",
						"name": "Blå opacitet 25%",
						"comment": ""
					},
					"dark": {
						"value": "#000048",
						"name": "Profilblå mörk",
						"comment": ""
					},
					"light": {
						"value": "#33337B",
						"name": "Profilblå ljus",
						"comment": ""
					},
					"lighter": {
						"value": "#DDDDE9",
						"name": "Profilblå ljusare",
						"comment": ""
					}
				},
				"apricot": {
					"base": {
						"value": "#FCDBCB",
						"name": "Aprikos",
						"comment": "Bakgrund 2"
					},
					"opacity50": {
						"value": "#FDEDE5",
						"name": "Aprikos opacitet 50%",
						"comment": ""
					},
					"opacity25": {
						"value": "#FEF6F2",
						"name": "Aprikos opacitet 25%",
						"comment": ""
					}
				},
				"yellow": {
					"base": {
						"value": "#FFE56F",
						"name": "Gul",
						"comment": "Bakgrund 3"
					},
					"opacity50": {
						"value": "#FFF2B7",
						"name": "Gul opacitet 50%",
						"comment": ""
					},
					"opacity25": {
						"value": "#FFF8DB",
						"name": "Gul opacitet 25%",
						"comment": ""
					}
				},
				"green": {
					"base": {
						"value": "#95C23E",
						"name": "Profilgrön",
						"comment": "Sekundärfärg för varumärket. Används i grafik, bakgrund, avdelare, diagram."
					},
					"dark": {
						"value": "#779B32",
						"name": "Profilgrön mörk",
						"comment": ""
					},
					"light": {
						"value": "#AACE65",
						"name": "Profilgrön ljus",
						"comment": ""
					},
					"lighter": {
						"value": "#DDEBC1",
						"name": "Profilgrön ljusare",
						"comment": ""
					},
					"lightest": {
						"value": "#F1F7E5",
						"name": "Profilgrön ljusast",
						"comment": ""
					}
				},
				"white": {
					"base": {
						"value": "#FFFFFF",
						"name": "Vit",
						"comment": "Primär bakgrund för varumärket. Avdelare, text."
					},
					"dark": {
						"value": "#FCFCFC",
						"name": "Vit mörk",
						"comment": ""
					},
					"darker": {
						"value": "#FAFAFA",
						"name": "Vit mörkare",
						"comment": ""
					},
					"darkest": {
						"value": "#F8F8F8",
						"name": "Vit mörkast",
						"comment": ""
					},
					"darkest-2": {
						"value": "#F4F4F4",
						"name": "Vit mörkast 2",
						"comment": ""
					},
					"darkest-3": {
						"value": "#F1F1F1",
						"name": "Vit mörkast 3",
						"comment": ""
					}
				}
			},
			"complementary": {
				"blue": {
					"base": {
						"value": "#00424C",
						"name": "Primärblå",
						"comment": ""
					},
					"accent1": {
						"value": "#99CED4",
						"name": "Accentblå",
						"comment": ""
					},
					"complement1": {
						"value": "#497E89",
						"name": "komplementblå",
						"comment": ""
					}
				},
				"red": {
					"accent2": {
						"value": "#EF7748",
						"name": "Accentröd",
						"comment": ""
					},
					"complement2": {
						"value": "#B1451C",
						"name": "komplementröd",
						"comment": ""
					}
				},
				"orange": {
					"accent3": {
						"value": "#F59C00",
						"name": "Accentorange",
						"comment": ""
					}
				},
				"green": {
					"accent4": {
						"value": "#A3C961",
						"name": "Accentgrön",
						"comment": ""
					}
				},
				"turqouise": {
					"base": {
						"value": "#058470",
						"name": "Turkos",
						"comment": "Primär komplementfärg. Bakgrund, grafik, komponenter."
					},
					"dark": {
						"value": "#046A5A",
						"name": "Turkos mörk",
						"comment": ""
					},
					"darker": {
						"value": "#035548",
						"name": "Turkos mörkare",
						"comment": ""
					},
					"darkest": {
						"value": "#02362E",
						"name": "Turkos mörkast",
						"comment": ""
					},
					"light": {
						"value": "#379D8D",
						"name": "Turkos ljus",
						"comment": ""
					},
					"lighter": {
						"value": "#7FC1B6",
						"name": "Turkos ljusare",
						"comment": ""
					},
					"lightest": {
						"value": "#BDDFDA",
						"name": "Turkos ljusast",
						"comment": ""
					},
					"lightest-2": {
						"value": "#DDEEEC",
						"name": "Turkos ljusast 2",
						"comment": ""
					}
				},
				"cerise": {
					"base": {
						"value": "#D43372",
						"name": "Rosa",
						"comment": "Sekundär komplementfärg. Bakgrund, grafik, komponenter."
					},
					"dark": {
						"value": "#AA295B",
						"name": "Rosa mörk",
						"comment": ""
					},
					"darker": {
						"value": "#882149",
						"name": "Rosa mörkare",
						"comment": ""
					},
					"darkest": {
						"value": "#57162E",
						"name": "Rosa mörkast",
						"comment": ""
					},
					"light": {
						"value": "#DD5C8E",
						"name": "Rosa ljus",
						"comment": ""
					},
					"lighter": {
						"value": "#E997B7",
						"name": "Rosa ljusare",
						"comment": ""
					},
					"lightest": {
						"value": "#F4CADA",
						"name": "Rosa ljusast",
						"comment": ""
					},
					"lightest-2": {
						"value": "#F9E4EC",
						"name": "Rosa ljusast 2",
						"comment": ""
					}
				}
			},
			"cta": {
				"green": {
					"base": {
						"value": "#9FD33C",
						"name": "",
						"comment": ""
					},
					"dark": {
						"value": "#92BE3B",
						"name": "",
						"comment": ""
					},
					"light": {
						"value": "#B7EE4A",
						"name": "",
						"comment": ""
					},
					"lighter": {
						"value": "#DAF6A2",
						"name": "",
						"comment": ""
					}
				},
				"blue": {
					"base": {
						"value": "#F1F8FE",
						"name": "",
						"comment": "",
						"attributes": {
							"hidden": "true"
						}
					},
					"dark": {
						"value": "#BDD3E7",
						"name": "",
						"comment": "",
						"attributes": {
							"hidden": "true"
						}
					},
					"darker": {
						"value": "#0058A3",
						"name": "",
						"comment": "",
						"attributes": {
							"hidden": "true"
						}
					}
				},
				"link": {
					"base": {
						"value": "#0079C2",
						"name": "Länkblå",
						"comment": ""
					}
				},
				"hover": {
					"base": {
						"value": "#424AE0",
						"name": "",
						"comment": ""
					}
				},
				"visited": {
					"base": {
						"value": "#822998",
						"name": "",
						"comment": ""
					}
				}
			},
			"neutral": {
				"grayscale": {
					"dark": {
						"value": "#CACACA",
						"name": "Grå mörk",
						"comment": ""
					},
					"darker": {
						"value": "#BDBDBD",
						"name": "Grå mörkare",
						"comment": ""
					},
					"darkest": {
						"value": "#ACACAC",
						"name": "Grå mörkast",
						"comment": ""
					},
					"darkest-2": {
						"value": "#979797",
						"name": "Grå mörkast 2",
						"comment": ""
					},
					"darkest-3": {
						"value": "#7D7D7D",
						"name": "Grå mörkast 3",
						"comment": ""
					},
					"darkest-4": {
						"value": "#5C5C5C",
						"name": "Grå mörkast 4",
						"comment": ""
					},
					"darkest-5": {
						"value": "#333333",
						"name": "Grå mörkast 5",
						"comment": ""
					},
					"darkest-6": {
						"value": "#000000",
						"name": "Grå mörkast 6",
						"comment": ""
					},
					"lighter": {
						"value": "#E4E4E4",
						"name": "Grå ljusare",
						"comment": ""
					},
					"lightest": {
						"value": "#E9E9E9",
						"name": "Grå ljusast",
						"comment": ""
					},
					"lightest-2": {
						"value": "#EDEDED",
						"name": "Grå ljusast 2",
						"comment": ""
					},
					"lightest-3": {
						"value": "#F1F1F1",
						"name": "Grå ljusast 3",
						"comment": ""
					},
					"lightest-4": {
						"value": "#F4F4F4",
						"name": "Grå ljusast 4",
						"comment": ""
					},
					"lightest-5": {
						"value": "#F8F8F8",
						"name": "Grå ljusast 5",
						"comment": ""
					},
					"lightest-6": {
						"value": "#FAFAFA",
						"name": "Grå ljusast 6",
						"comment": ""
					},
					"base": {
						"value": "#F2F2F2",
						"name": "Grå",
						"comment": "Bakgrund 4"
					},
					"opacity50": {
						"value": "#F8F8F8",
						"name": "Grå opacitet 50%",
						"comment": ""
					},
					"white": {
						"value": "#FFFFFF",
						"name": "Vit",
						"comment": ""
					},
					"light": {
						"value": "#D9D9D9",
						"name": "Grå ram",
						"comment": ""
					},
					"darker-1": {
						"value": "#929292",
						"name": "Inaktiv elementgrå",
						"comment": ""
					},
					"darker-2": {
						"value": "#666666",
						"name": "Inativ textgrå",
						"comment": ""
					},
					"darker-3": {
						"value": "#262626",
						"name": "textgrå",
						"comment": ""
					}
				}
			},
			"function": {
				"info": {
					"base": {
						"value": "#0000FF",
						"name": "Information",
						"comment": ""
					},
					"dark": {
						"value": "#0000CC",
						"name": "Information mörk",
						"comment": "",
						"attributes": {
							"hidden": "true"
						}
					},
					"darker": {
						"value": "#0000A3",
						"name": "Information mörkare",
						"comment": "",
						"attributes": {
							"hidden": "true"
						}
					},
					"darkest": {
						"value": "#000082",
						"name": "Information mörkast",
						"comment": "",
						"attributes": {
							"hidden": "true"
						}
					},
					"darkest-2": {
						"value": "#000068",
						"name": "Information mörkast 2",
						"comment": "",
						"attributes": {
							"hidden": "true"
						}
					},
					"light": {
						"value": "#3333FF",
						"name": "Information ljus",
						"comment": "",
						"attributes": {
							"hidden": "true"
						}
					},
					"lighter": {
						"value": "#5C5CFF",
						"name": "Information ljusare",
						"comment": "",
						"attributes": {
							"hidden": "true"
						}
					},
					"lightest": {
						"value": "#7D7DFF",
						"name": "Information ljusast",
						"comment": "",
						"attributes": {
							"hidden": "true"
						}
					},
					"lightest-2": {
						"value": "#BDBDFF",
						"name": "Information ljusast 2",
						"comment": "",
						"attributes": {
							"hidden": "true"
						}
					},
					"lightest-3": {
						"value": "#DDDDFF",
						"name": "Information ljusast 3",
						"comment": ""
					}
				},
				"success": {
					"base": {
						"value": "#1D9A18",
						"name": "Bekräftelsegrön",
						"comment": ""
					},
					"dark": {
						"value": "#00761B",
						"name": "Lyckad mörk",
						"comment": "",
						"attributes": {
							"hidden": "true"
						}
					},
					"darker": {
						"value": "#005E16",
						"name": "Lyckad mörkare",
						"comment": "",
						"attributes": {
							"hidden": "true"
						}
					},
					"darkest": {
						"value": "#004B12",
						"name": "Lyckad mörkast",
						"comment": "",
						"attributes": {
							"hidden": "true"
						}
					},
					"darkest-2": {
						"value": "#003C0E",
						"name": "Lyckad mörkast 2",
						"comment": "",
						"attributes": {
							"hidden": "true"
						}
					},
					"light": {
						"value": "#33A94E",
						"name": "Lyckad ljus",
						"comment": "",
						"attributes": {
							"hidden": "true"
						}
					},
					"lighter": {
						"value": "#5CBA71",
						"name": "Lyckad ljusare",
						"comment": "",
						"attributes": {
							"hidden": "true"
						}
					},
					"lightest": {
						"value": "#7DC88D",
						"name": "Lyckad ljusast",
						"comment": "",
						"attributes": {
							"hidden": "true"
						}
					},
					"lightest-2": {
						"value": "#BDE3C5",
						"name": "Lyckad ljusast 2",
						"comment": "",
						"attributes": {
							"hidden": "true"
						}
					},
					"lightest-3": {
						"value": "#DDF1E1",
						"name": "Lyckad ljusast 3",
						"comment": ""
					}
				},
				"warning": {
					"base": {
						"value": "#FFE200",
						"name": "Varning",
						"comment": ""
					},
					"dark": {
						"value": "#CCB500",
						"name": "Varning mörk",
						"comment": "",
						"attributes": {
							"hidden": "true"
						}
					},
					"darker": {
						"value": "#A39100",
						"name": "Varning mörkare",
						"comment": "",
						"attributes": {
							"hidden": "true"
						}
					},
					"darkest": {
						"value": "#827400",
						"name": "Varning mörkast",
						"comment": "",
						"attributes": {
							"hidden": "true"
						}
					},
					"darkest-2": {
						"value": "#685B00",
						"name": "Varning mörkast 2",
						"comment": "",
						"attributes": {
							"hidden": "true"
						}
					},
					"light": {
						"value": "#FFE833",
						"name": "Varning ljus",
						"comment": "",
						"attributes": {
							"hidden": "true"
						}
					},
					"lighter": {
						"value": "#FFF17D",
						"name": "Varning ljusare",
						"comment": "",
						"attributes": {
							"hidden": "true"
						}
					},
					"lightest": {
						"value": "#FFF6AC",
						"name": "Varning ljusast",
						"comment": "",
						"attributes": {
							"hidden": "true"
						}
					},
					"lightest-2": {
						"value": "#FFF9CA",
						"name": "Varning ljusast 2",
						"comment": ""
					},
					"lightest-3": {
						"value": "#FFFBDD",
						"name": "Varning ljusast 3",
						"comment": "",
						"attributes": {
							"hidden": "true"
						}
					}
				},
				"danger": {
					"base": {
						"value": "#CD2126",
						"name": "Felröd",
						"comment": ""
					},
					"dark": {
						"value": "#AE0000",
						"name": "Fara mörk",
						"comment": "",
						"attributes": {
							"hidden": "true"
						}
					},
					"darker": {
						"value": "#8B0000",
						"name": "Fara mörkare",
						"comment": "",
						"attributes": {
							"hidden": "true"
						}
					},
					"darkest": {
						"value": "#6F0000",
						"name": "Fara mörkast",
						"comment": "",
						"attributes": {
							"hidden": "true"
						}
					},
					"darkest-2": {
						"value": "#590000",
						"name": "Fara mörkast 2",
						"comment": "",
						"attributes": {
							"hidden": "true"
						}
					},
					"light": {
						"value": "#E84973",
						"name": "Fara ljus",
						"comment": "",
						"attributes": {
							"hidden": "true"
						}
					},
					"lighter": {
						"value": "#E75C5C",
						"name": "Fara ljusare",
						"comment": "",
						"attributes": {
							"hidden": "true"
						}
					},
					"lightest": {
						"value": "#F09797",
						"name": "Fara ljusast",
						"comment": "",
						"attributes": {
							"hidden": "true"
						}
					},
					"lightest-2": {
						"value": "#F7CACA",
						"name": "Fara ljusast 2",
						"comment": "",
						"attributes": {
							"hidden": "true"
						}
					},
					"lightest-3": {
						"value": "#FADDDD",
						"name": "Fara ljusast 3",
						"comment": ""
					}
				}
			}
		}
	}
}
