<?xml version="1.0" encoding="UTF-8"?>
<svg width="455px" height="275px" viewBox="0 0 455 275" version="1.1" xmlns="http://www.w3.org/2000/svg" xmlns:xlink="http://www.w3.org/1999/xlink">
    <title>Group 45 Copy 2</title>
    <defs>
        <rect id="path-1" x="0" y="0" width="455" height="275"></rect>
        <polygon id="path-3" points="0 212 357 212 357 0 0 0"></polygon>
    </defs>
    <g id="Page-2" stroke="none" stroke-width="1" fill="none" fill-rule="evenodd">
        <g id="annas-illustrationer-copy" transform="translate(-74.000000, -664.000000)">
            <g id="Group-45-Copy-2" transform="translate(74.000000, 664.000000)">
                <mask id="mask-2" fill="white">
                    <use xlink:href="#path-1"></use>
                </mask>
                <use id="Mask" fill="#F1F1F1" xlink:href="#path-1"></use>
                <g id="Group-45" mask="url(#mask-2)">
                    <g transform="translate(42.000000, 29.000000)">
                        <path d="M165.78742,194.260491 C165.78742,200.890618 160.419476,206.265653 153.798097,206.265653 C147.176717,206.265653 141.809223,200.890618 141.809223,194.260491 C141.809223,187.630365 147.176717,182.25533 153.798097,182.25533 C160.419476,182.25533 165.78742,187.630365 165.78742,194.260491" id="Fill-1" stroke="none" fill="#96C23E" fill-rule="evenodd"></path>
                        <polyline id="Stroke-3" stroke="#FEFEFE" stroke-width="1.97235" fill="none" stroke-linejoin="round" points="146.982514 194.432734 151.241493 198.668949 160.61413 189.852215"></polyline>
                        <path d="M196.089591,194.6751 C196.089591,201.305226 190.721648,206.680261 184.100268,206.680261 C177.478889,206.680261 172.111395,201.305226 172.111395,194.6751 C172.111395,188.044973 177.478889,182.669938 184.100268,182.669938 C190.721648,182.669938 196.089591,188.044973 196.089591,194.6751" id="Fill-5" stroke="none" fill="#96C23E" fill-rule="evenodd"></path>
                        <line x1="177.649374" y1="200.884444" x2="190.726958" y2="188.466026" id="Stroke-7" stroke="#FEFEFE" stroke-width="1.97235" fill="none" stroke-linejoin="round"></line>
                        <line x1="190.551477" y1="200.884444" x2="177.473893" y2="188.466026" id="Stroke-9" stroke="#FEFEFE" stroke-width="1.97235" fill="none" stroke-linejoin="round"></line>
                        <mask id="mask-4" fill="white">
                            <use xlink:href="#path-3"></use>
                        </mask>
                        <g id="Clip-12" stroke="none" fill="none"></g>
                        <polygon id="Fill-11" stroke="none" fill="#FEFEFE" fill-rule="evenodd" mask="url(#mask-4)" points="210.332758 205.751584 232.534992 205.751584 232.534992 183.52002 210.332758 183.52002"></polygon>
                        <polygon id="Stroke-13" stroke="#333333" stroke-width="1.35" fill="none" stroke-linejoin="round" mask="url(#mask-4)" points="210.332758 205.751584 232.534992 205.751584 232.534992 183.52002 210.332758 183.52002"></polygon>
                        <polygon id="Fill-14" stroke="none" fill="#96C23E" fill-rule="evenodd" mask="url(#mask-4)" points="245.402395 205.751584 267.604628 205.751584 267.604628 183.52002 245.402395 183.52002"></polygon>
                        <polyline id="Stroke-15" stroke="#333333" stroke-width="1.8567" fill="none" stroke-linejoin="round" mask="url(#mask-4)" points="248.791036 194.830443 253.610349 199.623674 264.215717 189.647389"></polyline>
                        <polygon id="Stroke-16" stroke="#333333" stroke-width="1.35" fill="none" stroke-linejoin="round" mask="url(#mask-4)" points="245.402395 205.751584 267.604628 205.751584 267.604628 183.52002 245.402395 183.52002"></polygon>
                        <polygon id="Fill-17" stroke="none" fill="#CAC9C9" fill-rule="evenodd" mask="url(#mask-4)" points="279.11148 205.751584 301.313714 205.751584 301.313714 183.52002 279.11148 183.52002"></polygon>
                        <polygon id="Stroke-18" stroke="#333333" stroke-width="1.35" fill="none" stroke-linejoin="round" mask="url(#mask-4)" points="279.11148 205.751584 301.313714 205.751584 301.313714 183.52002 279.11148 183.52002"></polygon>
                        <polyline id="Stroke-19" stroke="#333333" stroke-width="1.8567" fill="none" stroke-linejoin="round" mask="url(#mask-4)" points="213.721714 194.870056 218.541027 199.663287 229.146396 189.687002"></polyline>
                        <path d="M348.905058,56.5075856 L1.91768862,56.5075856 C1.21288438,56.5075856 0.641749914,55.9356966 0.641749914,55.2299613 L0.641749914,20.6358624 C0.641749914,19.9301271 1.21288438,19.3582382 1.91768862,19.3582382 L348.905058,19.3582382 C349.609412,19.3582382 350.180996,19.9301271 350.180996,20.6358624 L350.180996,55.2299613 C350.180996,55.9356966 349.609412,56.5075856 348.905058,56.5075856" id="Fill-20" stroke="none" fill="#FEFEFE" fill-rule="evenodd" mask="url(#mask-4)"></path>
                        <path d="M348.905058,56.5075856 L1.91768862,56.5075856 C1.21288438,56.5075856 0.641749914,55.9356966 0.641749914,55.2299613 L0.641749914,20.6358624 C0.641749914,19.9301271 1.21288438,19.3582382 1.91768862,19.3582382 L348.905058,19.3582382 C349.609412,19.3582382 350.180996,19.9301271 350.180996,20.6358624 L350.180996,55.2299613 C350.180996,55.9356966 349.609412,56.5075856 348.905058,56.5075856 Z" id="Stroke-21" stroke="#333333" stroke-width="1.2834" fill="none" stroke-linejoin="round" mask="url(#mask-4)"></path>
                        <path d="M19.3642039,74.034337 C19.3642039,79.1466366 15.2253918,83.2909162 10.1198367,83.2909162 C5.01428161,83.2909162 0.875469481,79.1466366 0.875469481,74.034337 C0.875469481,68.9220373 5.01428161,64.7777577 10.1198367,64.7777577 C15.2253918,64.7777577 19.3642039,68.9220373 19.3642039,74.034337" id="Fill-22" stroke="none" fill="#96C23E" fill-rule="evenodd" mask="url(#mask-4)"></path>
                        <path d="M19.3642039,74.034337 C19.3642039,79.1466366 15.2253918,83.2909162 10.1198367,83.2909162 C5.01428161,83.2909162 0.875469481,79.1466366 0.875469481,74.034337 C0.875469481,68.9220373 5.01428161,64.7777577 10.1198367,64.7777577 C15.2253918,64.7777577 19.3642039,68.9220373 19.3642039,74.034337 Z" id="Stroke-23" stroke="#333333" stroke-width="1.2834" fill="none" stroke-linejoin="round" mask="url(#mask-4)"></path>
                        <polyline id="Stroke-24" stroke="#FEFEFE" stroke-width="2.4858" fill="none" stroke-linejoin="round" mask="url(#mask-4)" points="4.86458947 74.1671468 8.14872519 77.4335385 15.375444 70.6353157"></polyline>
                        <line x1="7.71522107" y1="6.64143786" x2="188.115402" y2="6.64143786" id="Stroke-25" stroke="#95C23F" stroke-width="13.26375" fill="none" stroke-linecap="round" mask="url(#mask-4)"></line>
                        <line x1="30.2603605" y1="74.034337" x2="184.590886" y2="74.034337" id="Stroke-26" stroke="#95C23F" stroke-width="8.28585" fill="none" stroke-linecap="round" mask="url(#mask-4)"></line>
                        <path d="M26.4245332,38.3614906 C26.4245332,41.8915191 23.5666105,44.7532171 20.0412391,44.7532171 C16.5158677,44.7532171 13.657945,41.8915191 13.657945,38.3614906 C13.657945,34.8314621 16.5158677,31.969764 20.0412391,31.969764 C23.5666105,31.969764 26.4245332,34.8314621 26.4245332,38.3614906" id="Fill-27" stroke="none" fill="#96C23E" fill-rule="evenodd" mask="url(#mask-4)"></path>
                        <path d="M50.4180768,38.3614906 C50.4180768,41.8915191 47.5601541,44.7532171 44.0347827,44.7532171 C40.5094113,44.7532171 37.6514886,41.8915191 37.6514886,38.3614906 C37.6514886,34.8314621 40.5094113,31.969764 44.0347827,31.969764 C47.5601541,31.969764 50.4180768,34.8314621 50.4180768,38.3614906" id="Fill-28" stroke="none" fill="#96C23E" fill-rule="evenodd" mask="url(#mask-4)"></path>
                        <path d="M74.4115754,38.3614906 C74.4115754,41.8915191 71.5536527,44.7532171 68.0282813,44.7532171 C64.5029099,44.7532171 61.6449872,41.8915191 61.6449872,38.3614906 C61.6449872,34.8314621 64.5029099,31.969764 68.0282813,31.969764 C71.5536527,31.969764 74.4115754,34.8314621 74.4115754,38.3614906" id="Fill-29" stroke="none" fill="#96C23E" fill-rule="evenodd" mask="url(#mask-4)"></path>
                        <path d="M98.405119,38.3614906 C98.405119,41.8915191 95.5471964,44.7532171 92.021825,44.7532171 C88.4964536,44.7532171 85.6385309,41.8915191 85.6385309,38.3614906 C85.6385309,34.8314621 88.4964536,31.969764 92.021825,31.969764 C95.5471964,31.969764 98.405119,34.8314621 98.405119,38.3614906" id="Fill-30" stroke="none" fill="#96C23E" fill-rule="evenodd" mask="url(#mask-4)"></path>
                        <path d="M122.398618,38.3614906 C122.398618,41.8915191 119.540695,44.7532171 116.015324,44.7532171 C112.489952,44.7532171 109.632029,41.8915191 109.632029,38.3614906 C109.632029,34.8314621 112.489952,31.969764 116.015324,31.969764 C119.540695,31.969764 122.398618,34.8314621 122.398618,38.3614906" id="Fill-31" stroke="none" fill="#96C23E" fill-rule="evenodd" mask="url(#mask-4)"></path>
                        <path d="M146.392161,38.3614906 C146.392161,41.8915191 143.534239,44.7532171 140.008867,44.7532171 C136.483496,44.7532171 133.625573,41.8915191 133.625573,38.3614906 C133.625573,34.8314621 136.483496,31.969764 140.008867,31.969764 C143.534239,31.969764 146.392161,34.8314621 146.392161,38.3614906" id="Fill-32" stroke="none" fill="#96C23E" fill-rule="evenodd" mask="url(#mask-4)"></path>
                        <path d="M351.675488,112.258691 L5.4482808,112.258691 C2.87254985,112.258691 0.765338193,114.168593 0.765338193,116.502567 L0.765338193,142.617026 C0.765338193,144.951 2.87254985,146.860902 5.4482808,146.860902 L351.675488,146.860902 C354.251218,146.860902 356.35843,144.951451 356.35843,142.617026 L356.35843,116.502567 C356.35843,114.168593 354.251218,112.258691 351.675488,112.258691" id="Fill-33" stroke="none" fill="#FEFEFE" fill-rule="evenodd" mask="url(#mask-4)"></path>
                        <path d="M351.675488,112.258691 L5.4482808,112.258691 C2.87254985,112.258691 0.765338193,114.168593 0.765338193,116.502567 L0.765338193,142.617026 C0.765338193,144.951 2.87254985,146.860902 5.4482808,146.860902 L351.675488,146.860902 C354.251218,146.860902 356.35843,144.951451 356.35843,142.617026 L356.35843,116.502567 C356.35843,114.168593 354.251218,112.258691 351.675488,112.258691 Z" id="Stroke-34" stroke="#FEFEFE" stroke-width="0.5" fill="none" mask="url(#mask-4)"></path>
                        <path d="M294.938026,112.804622 L296.393091,112.804622 L352.577151,112.804622 C354.656908,112.804622 356.35861,114.647826 356.35861,116.900681 L356.35861,142.103002 C356.35861,144.355857 354.656908,146.198611 352.577151,146.198611 L296.393091,146.198611 L294.938026,146.198611" id="Fill-35" stroke="none" fill="#96C23E" fill-rule="evenodd" mask="url(#mask-4)"></path>
                        <line x1="333.90713" y1="139.037966" x2="326.694813" y2="131.816122" id="Stroke-36" stroke="#F9F9F9" stroke-width="2.02635" fill="none" mask="url(#mask-4)"></line>
                        <path d="M326.694813,122.394871 C329.293047,124.996538 329.293047,129.214726 326.694813,131.815941 C324.096579,134.417608 319.883956,134.417608 317.286171,131.815941 C314.687937,129.214726 314.687937,124.996538 317.286171,122.394871 C319.883956,119.793204 324.096579,119.793204 326.694813,122.394871 Z" id="Stroke-37" stroke="#F9F9F9" stroke-width="2.02635" fill="none" mask="url(#mask-4)"></path>
                        <path d="M351.675443,112.238997 L5.44823579,112.238997 C2.87250484,112.238997 0.765293186,114.148899 0.765293186,116.482873 L0.765293186,142.597333 C0.765293186,144.931757 2.87250484,146.841208 5.44823579,146.841208 L351.675443,146.841208 C354.251173,146.841208 356.358385,144.931757 356.358385,142.597333 L356.358385,116.482873 C356.358385,114.148899 354.251173,112.238997 351.675443,112.238997 Z" id="Stroke-38" stroke="#3B3835" stroke-width="1.2834" fill="none" stroke-linejoin="round" mask="url(#mask-4)"></path>
                        <path d="M113.589105,211.357267 L10.4009933,211.357267 C5.02494819,211.357267 0.666953642,206.993516 0.666953642,201.610369 L0.666953642,187.025172 C0.666953642,181.642025 5.02494819,177.278274 10.4009933,177.278274 L113.589105,177.278274 C118.96515,177.278274 123.323144,181.642025 123.323144,187.025172 L123.323144,201.610369 C123.323144,206.993516 118.96515,211.357267 113.589105,211.357267" id="Fill-39" stroke="none" fill="#FEFEFE" fill-rule="evenodd" mask="url(#mask-4)"></path>
                        <path d="M113.589105,211.357267 L10.4009933,211.357267 C5.02494819,211.357267 0.666953642,206.993516 0.666953642,201.610369 L0.666953642,187.025172 C0.666953642,181.642025 5.02494819,177.278274 10.4009933,177.278274 L113.589105,177.278274 C118.96515,177.278274 123.323144,181.642025 123.323144,187.025172 L123.323144,201.610369 C123.323144,206.993516 118.96515,211.357267 113.589105,211.357267 Z" id="Stroke-40" stroke="#3B3835" stroke-width="1.2834" fill="none" stroke-linejoin="round" mask="url(#mask-4)"></path>
                        <line x1="49.635321" y1="194.317771" x2="103.253101" y2="194.317771" id="Stroke-41" stroke="#95C23F" stroke-width="14.94675" fill="none" stroke-linecap="round" mask="url(#mask-4)"></line>
                        <path d="M24.5651732,186.524308 C21.656393,186.524308 19.3979589,188.54372 18.789919,191.653282 C18.783168,191.685279 18.776417,191.716825 18.7710162,191.749273 C18.7588644,191.812365 18.7480628,191.87681 18.7386114,191.940353 C18.7363611,191.952971 18.7341108,191.966491 18.7332106,191.97956 C18.6922546,192.257168 18.6706514,192.540633 18.6711014,192.829507 C18.6778524,192.952538 18.6711014,193.336952 18.6711014,193.461785 C18.6711014,195.335634 17.9127393,197.032373 16.6863079,198.260424 C16.4149178,198.532173 16.2470429,198.907123 16.2474921,199.32083 C16.2470429,199.896324 16.6007952,200.419091 17.0468112,200.647576 C17.7097593,200.987825 20.6014369,202.411464 24.5651732,202.411464 C28.5289094,202.411464 31.4205871,200.987825 32.0835351,200.647576 C32.5295511,200.419091 32.8833034,199.896324 32.8828542,199.32083 C32.8833034,198.907123 32.7154286,198.532173 32.4440384,198.260424 C31.2176071,197.032373 30.4592449,195.335634 30.4592449,193.461785 C30.4592449,193.336952 30.4524939,192.952538 30.459695,192.829057 C30.459695,192.540633 30.4380918,192.257168 30.3971357,191.97956 C30.3962356,191.966491 30.3939852,191.952971 30.392185,191.940804 C30.3827336,191.876359 30.3714819,191.812365 30.3593301,191.749273 C30.3539293,191.716825 30.3471783,191.685279 30.3404273,191.652831 C29.7323874,188.54372 27.4739534,186.524308 24.5651732,186.524308" id="Stroke-42" stroke="#95C23F" stroke-width="2.3598" fill="none" stroke-linecap="round" stroke-linejoin="round" mask="url(#mask-4)"></path>
                        <line x1="24.5651732" y1="186.524308" x2="24.5651732" y2="183.570675" id="Stroke-43" stroke="#95C23F" stroke-width="2.3598" fill="none" stroke-linejoin="round" mask="url(#mask-4)"></line>
                        <path d="M27.5564506,202.411284 C27.5564506,203.99716 26.2728607,205.282445 24.6890765,205.282445 C23.1052923,205.282445 21.8217024,203.99716 21.8217024,202.411284" id="Fill-44" stroke="none" fill="#95C23F" fill-rule="evenodd" mask="url(#mask-4)"></path>
                    </g>
                </g>
            </g>
        </g>
    </g>
</svg>