<?xml version="1.0" encoding="UTF-8"?>
<svg width="59px" height="74px" viewBox="0 0 59 74" version="1.1" xmlns="http://www.w3.org/2000/svg" xmlns:xlink="http://www.w3.org/1999/xlink">
    <title>Group 3</title>
    <g id="David-skisser-1" stroke="none" stroke-width="1" fill="none" fill-rule="evenodd">
        <g id="Startsida-no-cards-Copy-4" transform="translate(-266.000000, -847.000000)">
            <g id="Group-3" transform="translate(266.000000, 847.000000)">
                <path d="M12.2427023,5.41113046 C14.0964693,5.41113046 15.6049486,6.9339731 15.6049486,8.80529104 C15.6049486,10.0130053 14.9721991,11.0400904 13.7239366,11.8582015 C12.4856825,12.6707548 11.8034473,13.8506799 11.8034473,15.1817778 C11.8034473,17.2870799 13.499305,19 15.5832638,19 C15.9674729,19 16.2805115,18.6837601 16.2805115,18.2947127 C16.2805115,17.9051095 15.9674729,17.5888695 15.5832638,17.5888695 C14.2682791,17.5888695 13.1984987,16.5089851 13.1984987,15.1817778 C13.1984987,14.1096743 13.8968585,13.427174 14.4823464,13.0425729 C16.1292744,11.9632443 17,10.4976472 17,8.80529104 C17,6.15587832 14.8659994,4 12.2427023,4 C11.8584932,4 11.5454545,4.31623995 11.5454545,4.70528734 C11.5454545,5.09489051 11.8584932,5.41113046 12.2427023,5.41113046" id="Fill-89" stroke="#333333" stroke-width="0.5" fill="#3B3735" transform="translate(14.272727, 11.500000) scale(-1, 1) translate(-14.272727, -11.500000) "></path>
                <g id="Group-21">
                    <path d="M28.3978848,7.42531878 C28.3978848,9.29152485 27.4201362,10.8786159 25.4912735,12.1427923 C23.5778761,13.3983806 25.758479,14.5672284 26.6631972,13.9729281 C29.2080931,12.3051084 30.5535714,10.040412 30.5535714,7.42531878 C30.5535714,3.33134531 27.2560325,0 23.2024137,0 C22.6087192,0 22.125,0.488666017 22.125,1.08983686 C22.125,1.69186653 22.6087192,2.18053255 23.2024137,2.18053255 C26.0669251,2.18053255 28.3978848,4.533687 28.3978848,7.42531878 Z" id="Fill-89-Copy" fill="#3B3735" transform="translate(26.339286, 7.066174) scale(-1, 1) translate(-26.339286, -7.066174) "></path>
                    <path d="M32.3457745,70.5892857 L14.0122224,70.5892857 C8.60849635,70.5892857 4.21428571,66.1078748 4.21428571,60.6023628 L4.21428571,16.8571429 L42.1428571,16.8571429 L42.1428571,60.6023628 C42.1428571,66.1078748 37.7452302,70.5892857 32.3457745,70.5892857" id="Fill-86" fill="#DEE9B7"></path>
                    <path d="M56.8349891,54.9520703 C56.8349891,58.73096 53.7860184,61.8040548 50.0386849,61.8040548 L40.3997249,61.8040548 L40.3997249,27.201145 L50.0386849,27.201145 C53.7860184,27.201145 56.8349891,30.2742399 56.8349891,34.0531296 L56.8349891,54.9520703 Z M38.234714,62.0574171 C38.234714,67.2987415 34.0082813,71.5619496 28.813291,71.5619496 L11.5864339,71.5619496 C6.39144366,71.5619496 2.1650109,67.2987415 2.1650109,62.0574171 L2.1650109,21.1531979 L38.234714,21.1531979 L38.234714,62.0574171 Z M50.0386849,25.0122328 L40.3997249,25.0122328 L40.3997249,20.0587418 C40.3997249,19.4554983 39.9137197,18.9642857 39.3172195,18.9642857 L1.08250545,18.9642857 C0.486005238,18.9642857 0,19.4554983 0,20.0587418 L0,62.0574171 C0,68.5052285 5.19844324,73.75 11.5864339,73.75 L28.813291,73.75 C34.4088256,73.75 39.2006818,69.7211951 40.2089485,64.1696312 L40.2408884,63.992967 L50.0386849,63.992967 C54.9798821,63.992967 59,59.9374471 59,54.9520703 L59,34.0531296 C59,29.0677528 54.9798821,25.0122328 50.0386849,25.0122328 L50.0386849,25.0122328 Z" id="Fill-87" fill="#3B3735"></path>
                    <path d="M13.4675479,49.7019679 C13.5315705,49.8596512 13.5851894,50.0094064 13.6300052,50.1494715 C13.6740207,50.2904175 13.6964286,50.4313635 13.6964286,50.5714286 C13.6964286,50.8700579 13.6139995,51.1202371 13.4483411,51.3219661 C13.2826827,51.5236951 13.0666065,51.625 12.7993123,51.625 C12.6208494,51.625 12.4487887,51.5809544 12.2831303,51.4928631 C11.9902271,51.2127329 11.6749159,50.8920807 11.3379971,50.5317875 C11.0002781,50.1723752 10.6537559,49.8076774 10.2976304,49.438575 C9.8518732,48.9822623 9.39651267,48.5171405 8.93154875,48.0423286 C8.46658483,47.5683976 8.0560401,47.1561306 7.69991455,46.8046464 C7.48303809,46.5060171 7.375,46.2170778 7.375,45.9351857 C7.375,45.5669643 7.52145163,45.2330984 7.81435489,44.9344691 L7.79514812,44.9344691 C7.84556589,44.8816143 7.98641555,44.7327401 8.21529624,44.4869655 C8.44417693,44.2411909 8.71227144,43.9513706 9.01717894,43.6175048 C9.32288671,43.2845198 9.65100239,42.9286312 10.0007257,42.5507197 C10.3512493,42.1736891 10.6793649,41.8178004 10.9850727,41.4839345 C11.2899802,41.1509496 11.5548736,40.8655339 11.777352,40.6285684 C11.9998304,40.390722 12.143081,40.2462524 12.2071035,40.1933976 C12.4103752,40.0876881 12.5824358,40.0357143 12.7224852,40.0357143 C12.9897794,40.0357143 13.2066559,40.1405429 13.3723143,40.3519619 C13.5371724,40.5625 13.6204018,40.8170837 13.6204018,41.1157131 C13.6204018,41.4671972 13.544375,41.7561365 13.3915211,41.9842929 C13.1746446,42.2309484 12.8945459,42.537506 12.5512248,42.9066083 C12.2071035,43.2748298 11.8565799,43.6439322 11.5004544,44.0130345 C11.1691376,44.3645186 10.844223,44.7107173 10.526511,45.0533923 C10.2079988,45.3951863 9.94710678,45.6814829 9.74303483,45.9087584 L13.4291343,49.6755405 L13.4675479,49.7019679 Z" id="Fill-90" fill="#000000"></path>
                    <path d="M21.1793197,35.4927715 C21.4514125,35.0094953 21.7811674,34.7678571 22.1685844,34.7678571 C22.4406773,34.7678571 22.6767313,34.8709214 22.8776476,35.0779161 C23.0785638,35.2857769 23.1785714,35.5620585 23.1785714,35.9067609 C23.1785714,36.0626565 23.1578491,36.2012303 23.1146026,36.3216163 L19.0079827,47.8197806 C18.6349813,48.8556201 18.2547721,49.9087812 17.8682561,50.9783981 C17.4808391,52.0497471 17.1006299,53.1020421 16.7285294,54.1378816 C16.5852753,54.3795197 16.4240017,54.5484066 16.2447087,54.64281 C16.0654157,54.7380795 15.8969344,54.7857143 15.7392647,54.7857143 C15.4671719,54.7857143 15.2338207,54.6861143 15.0401122,54.4877805 C14.8473047,54.2885806 14.75,54.0001738 14.75,53.6199619 C14.75,53.481388 14.7572078,53.3696629 14.7716233,53.2830542 L18.8575208,41.9148029 C19.2296213,40.8625078 19.6170383,39.7876945 20.0179698,38.691229 C20.4189013,37.5947635 20.8063182,36.528611 21.1793197,35.4927715" id="Fill-92" fill="#000000"></path>
                    <path d="M30.2734727,45.9096393 L28.5352599,44.0130345 C28.1919389,43.6448131 27.8446164,43.2713061 27.4948931,42.8933946 C27.1443695,42.5163641 26.8674719,42.204521 26.6634,41.9587464 C26.4977416,41.7129718 26.4153125,41.4319607 26.4153125,41.1157131 C26.4153125,40.8170837 26.501743,40.5625 26.6730034,40.3519619 C26.845064,40.1414238 27.0579391,40.0357143 27.3132291,40.0357143 C27.4532784,40.0357143 27.6189368,40.0797599 27.809404,40.1678512 C27.8862311,40.219825 28.070296,40.4048167 28.3631992,40.7210643 C28.6561025,41.036431 28.9938216,41.3967242 29.3755561,41.8001822 C29.758091,42.204521 30.149429,42.6300018 30.5503703,43.0783863 C30.9513116,43.5258899 31.2986341,43.907325 31.5915374,44.2235726 L32.2597729,44.93535 L32.2405662,44.93535 C32.5206649,45.2507167 32.6607143,45.5845825 32.6607143,45.9360667 C32.6607143,46.2170778 32.5654807,46.4980889 32.3742133,46.7791 L30.1206188,49.0967809 L27.7717907,51.4673167 C27.5933278,51.5730262 27.4148649,51.625 27.236402,51.625 C26.9819123,51.625 26.7690372,51.524576 26.5969766,51.3219661 C26.4249159,51.1202371 26.3392857,50.8709388 26.3392857,50.5714286 C26.3392857,50.3080357 26.4153125,50.0279055 26.5681664,49.7283952 L30.2734727,45.9096393 Z" id="Fill-94" fill="#000000"></path>
                </g>
            </g>
        </g>
    </g>
</svg>