<?xml version="1.0" encoding="UTF-8"?>
<svg width="924px" height="258px" viewBox="0 0 924 258" version="1.1" xmlns="http://www.w3.org/2000/svg" xmlns:xlink="http://www.w3.org/1999/xlink">
    <title>logo-primary</title>
    <defs>
        <path d="M30.1624836,-2.30513283e-14 C62.3434431,-2.30513283e-14 88.4319895,26.4214538 88.4319895,59.0151556 C88.4319895,70.4166301 85.2309068,81.0567576 79.7015959,90.0805447 L79.7015959,90.0805447 L67.9356291,82.2179755 C71.9956967,75.4529446 74.3340959,67.5107758 74.3340959,59.0151556 C74.3340959,34.3074347 54.5580253,14.2782982 30.1624836,14.2782982 L30.1624836,14.2782982 Z M30.1624836,28.4669767 C46.8206886,28.4669767 60.3249672,42.1440637 60.3249672,59.0145001 C60.3249672,75.8858729 46.8206886,89.5629599 30.1624836,89.5629599 C13.5042786,89.5629599 2.8207786e-11,75.8858729 2.8207786e-11,59.0145001 C2.8207786e-11,42.1440637 13.5042786,28.4669767 30.1624836,28.4669767 Z M30.1624836,42.6956422 C21.262882,42.6956422 14.0498126,50.0019506 14.0498126,59.0145001 C14.0498126,68.027986 21.262882,75.3342944 30.1624836,75.3342944 C39.0620852,75.3342944 46.2751545,68.027986 46.2751545,59.0145001 C46.2751545,50.0019506 39.0620852,42.6956422 30.1624836,42.6956422 Z" id="path-1"></path>
    </defs>
    <g id="Page-1" stroke="none" stroke-width="1" fill="none" fill-rule="evenodd">
        <g id="Grafisk-manual---logotyp" transform="translate(-675.000000, -869.000000)">
            <g id="logo-primary" transform="translate(675.487688, 869.669568)">
                <text id="Sekundär" font-family="OpenSans-Semibold, Open Sans" font-size="14" font-weight="500" fill="#FFFFFF">
                    <tspan x="429.681279" y="209.538921">Sekundär</tspan>
                </text>
                <rect id="Rectangle" stroke="#FFFFFF" x="412.666844" y="192.813817" width="95" height="26"></rect>
                <rect id="Rectangle" fill="#FAFAFA" x="0" y="0" width="923" height="257"></rect>
                <text id="Primär" font-family="OpenSans-Semibold, Open Sans" font-size="14" font-weight="500" fill="#00005A">
                    <tspan x="436.359754" y="215.538921">Primär</tspan>
                </text>
                <rect id="Rectangle" stroke="#00005A" x="422.666844" y="198.813817" width="71" height="26"></rect>
                <g id="Group" transform="translate(85.735941, 55.245358)">
                    <g id="Group-12-Copy-2" transform="translate(-0.000462, 0.755728)">
                        <path d="M128.468362,30.703262 L124.729389,21.4594029 L120.906238,30.703262 L128.468362,30.703262 Z M130.84754,36.1312131 L118.612162,36.1312131 L114.703908,44.4416382 L108.247195,44.4416382 L124.645211,9.24812848 L124.814491,9.24812848 L141.213432,44.4416382 L134.585589,44.4416382 L130.84754,36.1312131 Z" id="Fill-1" fill="#00005A"></path>
                        <g id="Group-79">
                            <path d="M155.016544,14.9692229 L155.016544,23.9152833 L160.96194,23.9152833 C163.42424,23.9152833 165.548124,21.9365305 165.548124,19.4417849 C165.548124,16.9470393 163.594373,14.9692229 161.131148,14.9692229 L155.016544,14.9692229 Z M166.22773,43.8704389 L155.016544,29.2484576 L155.016544,43.8704389 L148.901939,43.8704389 L148.901939,9.20621069 L161.131148,9.20621069 C166.991478,9.20621069 171.662728,13.5064629 171.662728,19.3565665 C171.662728,25.2047971 167.415885,28.4740002 162.235161,29.0752114 L173.95582,43.8704389 L166.22773,43.8704389 Z" id="Fill-2" fill="#00005A"></path>
                            <path d="M397.123895,14.9692229 L397.123895,23.9152833 L403.069291,23.9152833 C405.532516,23.9152833 407.655476,21.9365305 407.655476,19.4417849 C407.655476,16.9470393 405.701724,14.9692229 403.238499,14.9692229 L397.123895,14.9692229 Z M408.335081,43.8704389 L397.123895,29.2484576 L397.123895,43.8704389 L391.009291,43.8704389 L391.009291,9.20621069 L403.238499,9.20621069 C409.098829,9.20621069 413.77008,13.5064629 413.77008,19.3565665 C413.77008,25.2047971 409.523236,28.4740002 404.343437,29.0752114 L416.063172,43.8704389 L408.335081,43.8704389 Z" id="Fill-4" fill="#00005A"></path>
                            <path d="M200.512786,33.7204577 C200.512786,31.2257121 198.304761,29.2478958 195.841536,29.2478958 L190.660812,29.2478958 L190.660812,38.0216464 L195.841536,38.0216464 C198.304761,38.0216464 200.512786,36.3013582 200.512786,33.7204577 L200.512786,33.7204577 Z M190.660812,14.9695975 L190.660812,23.4848835 L195.841536,23.4848835 C198.304761,23.4848835 200.088379,21.8507502 200.088379,19.2698497 C200.088379,16.7751041 198.304761,14.9695975 195.841536,14.9695975 L190.660812,14.9695975 Z M206.88259,33.7204577 C206.88259,39.48347 202.296405,43.8708135 195.841536,43.8708135 L184.631274,43.8708135 L184.631274,9.20564881 L195.841536,9.20564881 C201.701866,9.20564881 206.202984,13.5068375 206.202984,19.3560046 C206.202984,22.366743 205.098971,24.7753338 202.976011,26.4094671 C205.353245,27.8712906 206.88259,30.7097193 206.88259,33.7204577 L206.88259,33.7204577 Z" id="Fill-6" fill="#00005A"></path>
                            <polygon id="Fill-8" fill="#00005A" points="225.371292 15.1411581 225.371292 23.742599 237.8557 23.742599 237.8557 29.5056112 225.371292 29.5056112 225.371292 38.1070521 238.280107 38.1070521 238.280107 43.8710008 219.341754 43.8710008 219.341754 9.20583611 238.280107 9.20583611 238.280107 14.9688483 225.371292 14.9688483"></polygon>
                            <polygon id="Fill-10" fill="#00005A" points="257.304635 14.9692229 248.556673 14.9692229 248.556673 9.20621069 272.167201 9.20621069 272.167201 14.9692229 263.419239 14.9692229 263.419239 43.8704389 257.304635 43.8704389"></polygon>
                            <polygon id="Fill-12" fill="#00005A" points="320.348118 15.0551905 320.348118 23.6566314 333.0868 23.6566314 333.0868 29.4196436 320.348118 29.4196436 320.348118 43.8711881 314.487788 43.8711881 314.487788 9.2060234 333.427065 9.2060234 333.427065 14.9690356"></polygon>
                            <path d="M368.927091,3.70100758 C368.927091,1.72319123 370.626568,0.174276337 372.494328,0.174276337 C374.363014,0.174276337 376.061566,1.72319123 376.061566,3.70100758 C376.061566,5.67976039 374.363014,7.22773882 372.494328,7.22773882 C370.626568,7.22773882 368.927091,5.76591527 368.927091,3.70100758 M374.192881,26.4955283 C374.192881,19.5282207 368.927091,14.2812013 362.048739,14.2812013 C355.169462,14.2812013 349.903672,19.6143756 349.903672,26.4955283 C349.903672,33.4628359 355.169462,38.7098553 362.048739,38.7098553 C368.842024,38.7960102 374.192881,33.4628359 374.192881,26.4955283 M348.120053,3.78716246 C348.120053,1.80840964 349.818606,0.260431216 351.686366,0.260431216 C353.555052,0.260431216 355.253604,1.80840964 355.253604,3.78716246 C355.253604,5.76591527 353.555052,7.31389369 351.686366,7.31389369 C349.818606,7.31389369 348.120053,5.76591527 348.120053,3.78716246 M343.704002,26.4955283 C343.704002,16.4313274 351.856499,8.43203419 362.048739,8.43203419 C372.154988,8.43203419 380.392552,16.4313274 380.392552,26.4955283 C380.392552,36.5587928 372.240054,44.5590224 362.048739,44.5590224 C351.856499,44.5590224 343.704002,36.5587928 343.704002,26.4955283" id="Fill-14" fill="#00005A"></path>
                            <polygon id="Fill-16" fill="#00005A" points="462.154417 8.43175325 462.154417 43.8704389 456.039813 43.8704389 456.039813 21.3343828 444.489285 31.569957 432.853692 21.248228 432.853692 43.8704389 426.738163 43.8704389 426.738163 8.43175325 426.823229 8.43175325 444.404219 23.6568187 461.899218 8.43175325"></polygon>
                            <polygon id="Fill-18" fill="#00005A" points="481.773022 15.1411581 481.773022 23.742599 494.25743 23.742599 494.25743 29.5056112 481.773022 29.5056112 481.773022 38.1070521 494.681837 38.1070521 494.681837 43.8710008 475.743484 43.8710008 475.743484 9.20583611 494.681837 9.20583611 494.681837 14.9688483 481.773022 14.9688483"></polygon>
                            <path d="M529.026902,26.5813086 C529.026902,19.7001559 524.186443,15.0552842 516.966901,15.0552842 L513.909137,15.0552842 L513.909137,38.0211782 L516.966901,38.0211782 C524.186443,38.0211782 529.026902,33.3763064 529.026902,26.5813086 M535.226572,26.5813086 C535.226572,36.7307279 527.498482,43.8703453 516.966901,43.8703453 L507.879599,43.8703453 L507.879599,9.20611705 L516.966901,9.20611705 C527.498482,9.20611705 535.226572,16.3457344 535.226572,26.5813086" id="Fill-20" fill="#00005A"></path>
                            <polygon id="Fill-22" fill="#00005A" points="564.526927 38.1074267 564.526927 43.8704389 545.588575 43.8704389 545.588575 9.20621069 551.703179 9.20621069 551.703179 38.1074267"></polygon>
                            <polygon id="Clip-25" points="0.000462316961 90.0814812 731.923117 90.0814812 731.923117 -3.12153404e-15 0.000462316961 -3.12153404e-15"></polygon>
                            <polygon id="Fill-24" fill="#00005A" points="575.313244 43.8706262 581.427849 43.8706262 581.427849 9.20546152 575.313244 9.20546152"></polygon>
                            <polygon id="Fill-26" fill="#00005A" points="622.87364 9.20592975 622.87364 44.5584606 622.788574 44.5584606 601.047656 22.710707 601.047656 43.8710945 594.931203 43.8710945 594.931203 8.51762719 595.017193 8.51762719 616.759036 30.2801623 616.759036 9.20592975"></polygon>
                            <polygon id="Fill-27" fill="#00005A" points="731.922655 9.20592975 731.922655 44.5584606 731.837588 44.5584606 710.096671 22.710707 710.096671 43.8710945 703.981142 43.8710945 703.981142 8.51762719 704.066208 8.51762719 725.893117 30.2801623 725.893117 9.20592975"></polygon>
                            <path d="M659.9105,43.8707199 L651.501879,43.8707199 C640.886156,43.8707199 633.242208,36.6449476 633.242208,26.5816832 C633.242208,16.4313274 640.971223,9.20555517 651.501879,9.20555517 L657.362208,9.20555517 L657.362208,14.9695039 L651.501879,14.9695039 C644.284186,14.9695039 639.441878,19.6143756 639.441878,26.4955283 C639.441878,33.376681 644.284186,38.0215528 651.501879,38.0215528 L653.880962,38.0215528 L653.880962,29.4201119 L648.699313,29.4201119 L648.699313,23.6570996 L659.9105,23.6570996 L659.9105,43.8707199 Z" id="Fill-28" fill="#00005A"></path>
                            <polygon id="Fill-29" fill="#00005A" points="678.730961 15.1411581 678.730961 23.742599 691.216293 23.742599 691.216293 29.5056112 678.730961 29.5056112 678.730961 38.1070521 691.6407 38.1070521 691.6407 43.8710008 672.701423 43.8710008 672.701423 9.20583611 691.6407 9.20583611 691.6407 14.9688483 678.730961 14.9688483"></polygon>
                            <path d="M281.679187,38.0068503 L292.465967,38.0068503 C294.928267,38.0068503 296.881094,35.9372602 296.881094,33.4368958 C296.881094,30.9365314 294.928267,28.9530962 292.465967,28.9530962 L290.936622,28.8669414 C284.736952,28.8669414 280.660241,25.5902466 280.660241,19.1220754 C280.660241,12.5686858 285.416558,9.20583611 291.191821,9.20583611 L301.042871,9.20583611 L301.042871,14.9838318 L291.191821,14.9838318 C288.728597,14.9838318 286.774845,16.5355561 286.774845,19.1220754 C286.774845,21.6233763 288.728597,22.9166359 291.191821,22.9166359 L292.720241,23.0027908 C299.174186,23.0027908 302.996623,26.5379502 302.996623,33.4368958 C302.996623,39.9041305 298.240306,43.8710008 292.465967,43.8710008 L281.679187,43.8710008 L281.679187,38.0068503 Z" id="Fill-30" fill="#00005A"></path>
                            <polygon id="Fill-31" fill="#00005A" points="153.879706 65.8242004 143.815066 87.740316 143.730924 87.740316 139.285284 78.0563203 134.840569 87.740316 124.775004 65.8242004 128.214642 65.8242004 134.840569 80.4349441 137.607998 74.4041026 133.666284 65.8242004 137.104997 65.8242004 139.285284 70.66573 141.466496 65.8242004 144.821067 65.8242004 140.879353 74.3188842 143.646782 80.4349441 150.272709 65.8242004"></polygon>
                            <polygon id="Fill-32" fill="#00005A" points="161.450609 68.7108571 161.450609 74.9121355 169.586463 74.9121355 169.586463 77.9696972 161.450609 77.9696972 161.450609 84.1709755 169.753821 84.1709755 169.753821 87.2285373 158.263396 87.2285373 158.263396 65.8227957 169.753821 65.8227957 169.753821 68.8812939 161.450609 68.8812939"></polygon>
                            <path d="M190.442968,76.5258538 C190.442968,71.939043 187.171613,68.7962628 182.391256,68.7962628 L180.210044,68.7962628 L180.210044,84.1711628 L182.391256,84.1711628 C187.171613,84.2554448 190.442968,81.1126646 190.442968,76.5258538 M193.630181,76.5258538 C193.630181,82.8114141 188.848899,87.2287246 182.307114,87.2287246 L176.939614,87.2287246 L176.939614,65.822983 L182.307114,65.822983 C188.848899,65.822983 193.630181,70.2402935 193.630181,76.5258538" id="Fill-33" fill="#00005A"></path>
                            <polygon id="Fill-34" fill="#00005A" points="199.47359 87.2290055 202.660804 87.2290055 202.660804 65.823264 199.47359 65.823264"></polygon>
                            <polygon id="Fill-35" fill="#00005A" points="245.044636 65.8227957 245.044636 87.2285373 241.857423 87.2285373 241.857423 78.0549156 231.540358 78.0549156 231.540358 87.2285373 228.354069 87.2285373 228.354069 65.8227957 231.540358 65.8227957 231.540358 74.9964174 241.857423 74.9964174 241.857423 65.8227957"></polygon>
                            <path d="M274.852338,71.9386684 C274.852338,70.1547005 273.426552,68.7958882 271.665125,68.7958882 L268.142269,68.7958882 L268.142269,75.0814485 L271.665125,75.0814485 C273.426552,75.0814485 274.852338,73.8078547 274.852338,71.9386684 M277.955409,71.9386684 C277.955409,75.5066041 275.103838,78.1399467 271.580983,78.1399467 L268.058128,78.1399467 L268.058128,87.2292865 L264.871839,87.2292865 L264.871839,65.8226084 L271.497766,65.8226084 C275.103838,65.8226084 277.955409,68.455951 277.955409,71.9386684" id="Fill-36" fill="#00005A"></path>
                            <path d="M283.463454,80.6046318 L283.463454,65.8243877 L286.650667,65.8243877 L286.650667,80.6046318 C286.650667,82.8128188 288.327953,84.6820051 290.928023,84.6820051 C293.443952,84.6820051 295.20538,82.8128188 295.20538,80.6046318 L295.20538,65.8243877 L298.392593,65.8243877 L298.392593,80.6046318 C298.392593,84.6820051 295.541022,87.7405033 291.012165,87.7405033 C286.315025,87.7405033 283.463454,84.5977231 283.463454,80.6046318" id="Fill-37" fill="#00005A"></path>
                            <path d="M315.474835,81.0280081 C315.474835,79.2440402 313.881691,77.885228 312.036122,77.885228 L308.513266,77.885228 L308.513266,84.1707883 L312.036122,84.1707883 C313.797549,84.1707883 315.474835,82.811976 315.474835,81.0280081 L315.474835,81.0280081 Z M308.513266,68.7958882 L308.513266,74.8267298 L312.036122,74.8267298 C313.881691,74.8267298 315.139193,73.6374178 315.139193,71.769168 C315.139193,69.9852001 313.881691,68.7958882 312.036122,68.7958882 L308.513266,68.7958882 Z M318.662048,81.0280081 C318.662048,84.8506626 315.894619,87.2292865 312.036122,87.2292865 L305.410195,87.2292865 L305.410195,65.8226084 L312.036122,65.8226084 C315.558977,65.8226084 318.326406,68.3707326 318.326406,71.8543864 C318.326406,73.8078547 317.487763,75.3361673 316.146119,76.4411973 C317.487763,77.3757904 318.662048,79.0745399 318.662048,81.0280081 L318.662048,81.0280081 Z" id="Fill-38" fill="#00005A"></path>
                            <polygon id="Fill-39" fill="#00005A" points="336.499439 84.1712565 336.499439 87.2288182 325.260513 87.2288182 325.260513 65.8230767 328.447727 65.8230767 328.447727 84.2555384 336.499439 84.2555384"></polygon>
                            <polygon id="Fill-40" fill="#00005A" points="342.090978 87.2290055 345.278191 87.2290055 345.278191 65.823264 342.090978 65.823264"></polygon>
                            <path d="M351.094046,76.4838065 C351.094046,70.2225943 355.874403,65.8230767 362.417113,65.8230767 L365.604326,65.8230767 L365.604326,68.8684643 L362.417113,68.8684643 C357.552614,68.8684643 354.365401,71.9147885 354.365401,76.5680884 C354.365401,81.1371064 357.635831,84.1834305 362.417113,84.1834305 L365.604326,84.1834305 L365.604326,87.2288182 L362.417113,87.2288182 C355.874403,87.1445363 351.094046,82.7450187 351.094046,76.4838065" id="Fill-41" fill="#00005A"></path>
                            <polygon id="Fill-42" fill="#00005A" points="387.529061 68.7108571 387.529061 74.9121355 395.664915 74.9121355 395.664915 77.9696972 387.529061 77.9696972 387.529061 84.1709755 395.832274 84.1709755 395.832274 87.2285373 384.342773 87.2285373 384.342773 65.8227957 395.832274 65.8227957 395.832274 68.8812939 387.529986 68.8812939 387.529986 68.7108571"></polygon>
                            <polygon id="Fill-43" fill="#00005A" points="424.490008 65.4053192 424.490008 87.2362163 421.302795 87.2362163 421.302795 71.9455982 413.837301 78.232095 406.372731 71.9455982 406.372731 87.2362163 403.269659 87.2362163 403.269659 65.3201007 403.353801 65.3201007 413.921442 74.2399401"></polygon>
                            <path d="M442.187132,71.8540118 C442.187132,70.070044 440.761346,68.7112317 438.999919,68.7112317 L435.477063,68.7112317 L435.477063,74.996792 L438.999919,74.996792 C440.844563,74.996792 442.187132,73.7231981 442.187132,71.8540118 M445.37342,71.8540118 C445.37342,75.4219476 442.521849,78.0552902 438.999919,78.0552902 L435.477063,78.0552902 L435.477063,87.2364036 L432.28985,87.2289119 L432.28985,65.8241068 L438.915777,65.8241068 C442.521849,65.8241068 445.37342,68.3712945 445.37342,71.8540118" id="Fill-44" fill="#00005A"></path>
                            <polygon id="Fill-45" fill="#00005A" points="461.897923 84.1712565 461.897923 87.2288182 450.658998 87.2288182 450.658998 65.8230767 453.845286 65.8230767 453.845286 84.2555384 461.897923 84.2555384"></polygon>
                            <path d="M484.683307,76.529506 C484.683307,71.8574768 481.160452,68.3747594 476.547454,68.3747594 C471.934455,68.3747594 468.4116,71.9426952 468.4116,76.529506 C468.4116,81.2015353 471.934455,84.6842526 476.547454,84.6842526 C481.160452,84.6842526 484.683307,81.2015353 484.683307,76.529506 M465.224386,76.529506 C465.224386,70.3282277 470.256244,65.3162612 476.547454,65.3162612 C482.837738,65.3162612 487.870521,70.2439457 487.870521,76.529506 C487.870521,82.7307844 482.837738,87.7427508 476.547454,87.7427508 C470.256244,87.7427508 465.224386,82.7307844 465.224386,76.529506" id="Fill-46" fill="#00005A"></path>
                            <polygon id="Fill-47" fill="#00005A" points="500.005694 76.8656037 500.005694 87.2285373 496.818481 87.2285373 496.818481 76.8656037 490.359913 65.8227957 493.882768 65.8227957 498.411625 73.5523867 502.941407 65.8227957 506.463337 65.8227957"></polygon>
                            <polygon id="Fill-48" fill="#00005A" points="532.436489 65.4053192 532.436489 87.2362163 529.249276 87.2362163 529.249276 71.9455982 521.784706 78.232095 514.320137 71.9455982 514.320137 87.2362163 511.132924 87.2362163 511.132924 65.3201007 511.217065 65.3201007 521.784706 74.2399401"></polygon>
                            <polygon id="Fill-49" fill="#00005A" points="543.535703 68.7108571 543.535703 74.9121355 551.671557 74.9121355 551.671557 77.9696972 543.535703 77.9696972 543.535703 84.1709755 551.838915 84.1709755 551.838915 87.2285373 540.348489 87.2285373 540.348489 65.8227957 551.838915 65.8227957 551.838915 68.8812939 543.535703 68.8812939"></polygon>
                            <polygon id="Fill-50" fill="#00005A" points="575.994515 65.8250433 575.994515 87.6559404 575.910373 87.6559404 562.491161 72.9609147 562.491161 87.2317213 559.303947 87.2317213 559.303947 65.3156057 559.388089 65.3156057 572.808226 79.9263494 572.808226 65.8241068"></polygon>
                            <polygon id="Fill-51" fill="#00005A" points="586.702793 68.8809193 581.167009 68.8809193 581.167009 65.8224211 595.341648 65.8224211 595.341648 68.8809193 589.890006 68.8809193 589.890006 87.2290992 586.702793 87.2290992"></polygon>
                            <path d="M274.683962,71.9386684 C274.683962,70.1547005 273.258176,68.7958882 271.496749,68.7958882 L267.973893,68.7958882 L267.973893,75.0814485 L271.496749,75.0814485 C273.258176,75.0814485 274.683962,73.8078547 274.683962,71.9386684 M277.787033,71.9386684 C277.787033,75.5066041 274.935462,78.1399467 271.412607,78.1399467 L267.889752,78.1399467 L267.889752,87.2292865 L264.703463,87.2292865 L264.703463,65.8226084 L271.32939,65.8226084 C274.935462,65.8226084 277.787033,68.455951 277.787033,71.9386684" id="Fill-52" fill="#00005A"></path>
                            <path d="M283.295078,80.6046318 L283.295078,65.8243877 L286.482291,65.8243877 L286.482291,80.6046318 C286.482291,82.8128188 288.159577,84.6820051 290.759647,84.6820051 C293.275576,84.6820051 295.037004,82.8128188 295.037004,80.6046318 L295.037004,65.8243877 L298.224217,65.8243877 L298.224217,80.6046318 C298.224217,84.6820051 295.372646,87.7405033 290.843789,87.7405033 C286.146649,87.7405033 283.295078,84.5977231 283.295078,80.6046318" id="Fill-53" fill="#00005A"></path>
                            <path d="M315.306922,81.0280081 C315.306922,79.2440402 313.712853,77.885228 311.868208,77.885228 L308.345353,77.885228 L308.345353,84.1707883 L311.868208,84.1707883 C313.629636,84.1707883 315.306922,82.811976 315.306922,81.0280081 L315.306922,81.0280081 Z M308.345353,68.7958882 L308.345353,74.8267298 L311.868208,74.8267298 C313.712853,74.8267298 314.971279,73.6374178 314.971279,71.769168 C314.971279,69.9852001 313.712853,68.7958882 311.868208,68.7958882 L308.345353,68.7958882 Z M318.494135,81.0280081 C318.494135,84.8506626 315.725781,87.2292865 311.868208,87.2292865 L305.242281,87.2292865 L305.242281,65.8226084 L311.868208,65.8226084 C315.390139,65.8226084 318.158493,68.3707326 318.158493,71.8543864 C318.158493,73.8078547 317.31985,75.3361673 315.978206,76.4411973 C317.31985,77.3757904 318.494135,79.0745399 318.494135,81.0280081 L318.494135,81.0280081 Z" id="Fill-54" fill="#00005A"></path>
                            <polygon id="Fill-55" fill="#00005A" points="336.331063 84.1712565 336.331063 87.2288182 325.092138 87.2288182 325.092138 65.8230767 328.279351 65.8230767 328.279351 84.2555384 336.331063 84.2555384"></polygon>
                            <polygon id="Fill-56" fill="#00005A" points="341.922694 87.2290055 345.109908 87.2290055 345.109908 65.823264 341.922694 65.823264"></polygon>
                            <path d="M350.925578,76.4838065 C350.925578,70.2225943 355.705935,65.8230767 362.248645,65.8230767 L365.435858,65.8230767 L365.435858,68.8684643 L362.248645,68.8684643 C357.384146,68.8684643 354.196932,71.9147885 354.196932,76.5680884 C354.196932,81.1371064 357.468287,84.1834305 362.248645,84.1834305 L365.435858,84.1834305 L365.435858,87.2288182 L362.248645,87.2288182 C355.705935,87.1445363 350.925578,82.7450187 350.925578,76.4838065" id="Fill-57" fill="#00005A"></path>
                            <polygon id="Fill-58" fill="#00005A" points="387.361055 68.7108571 387.361055 74.9121355 395.496909 74.9121355 395.496909 77.9696972 387.361055 77.9696972 387.361055 84.1709755 395.664268 84.1709755 395.664268 87.2285373 384.173842 87.2285373 384.173842 65.8227957 395.664268 65.8227957 395.664268 68.8812939 387.361055 68.8812939"></polygon>
                            <polygon id="Fill-59" fill="#00005A" points="424.32117 65.4053192 424.32117 87.2362163 421.133957 87.2362163 421.133957 71.9455982 413.669387 78.232095 406.204817 71.9455982 406.204817 87.2362163 403.101746 87.2362163 403.101746 65.3201007 403.185888 65.3201007 413.753529 74.2399401"></polygon>
                            <path d="M442.018294,71.8540118 C442.018294,70.070044 440.592508,68.7112317 438.831081,68.7112317 L435.308225,68.7112317 L435.308225,74.996792 L438.831081,74.996792 C440.67665,74.996792 442.018294,73.7231981 442.018294,71.8540118 M445.205507,71.8540118 C445.205507,75.4219476 442.353936,78.0552902 438.831081,78.0552902 L435.308225,78.0552902 L435.308225,87.2364036 L432.121937,87.2289119 L432.121937,65.8241068 L438.747863,65.8241068 C442.353936,65.8241068 445.205507,68.3712945 445.205507,71.8540118" id="Fill-60" fill="#00005A"></path>
                            <polygon id="Fill-61" fill="#00005A" points="461.729085 84.1712565 461.729085 87.2288182 450.49016 87.2288182 450.49016 65.8230767 453.677373 65.8230767 453.677373 84.2555384 461.729085 84.2555384"></polygon>
                            <path d="M484.514469,76.529506 C484.514469,71.8574768 480.991614,68.3747594 476.378615,68.3747594 C471.766541,68.3747594 468.242761,71.9426952 468.242761,76.529506 C468.242761,81.2015353 471.766541,84.6842526 476.378615,84.6842526 C480.991614,84.6842526 484.514469,81.2015353 484.514469,76.529506 M465.056473,76.529506 C465.056473,70.3282277 470.088331,65.3162612 476.378615,65.3162612 C482.669825,65.3162612 487.701683,70.2439457 487.701683,76.529506 C487.701683,82.7307844 482.669825,87.7427508 476.378615,87.7427508 C470.088331,87.7427508 465.056473,82.7307844 465.056473,76.529506" id="Fill-62" fill="#00005A"></path>
                            <polygon id="Fill-63" fill="#00005A" points="499.836856 76.8656037 499.836856 87.2285373 496.650567 87.2285373 496.650567 76.8656037 490.191999 65.8227957 493.714854 65.8227957 498.243711 73.5523867 502.773493 65.8227957 506.295424 65.8227957"></polygon>
                            <polygon id="Fill-64" fill="#00005A" points="532.268576 65.4053192 532.268576 87.2362163 529.081363 87.2362163 529.081363 71.9455982 521.615868 78.232095 514.151299 71.9455982 514.151299 87.2362163 510.96501 87.2362163 510.96501 65.3201007 511.048227 65.3201007 521.615868 74.2399401"></polygon>
                            <polygon id="Fill-65" fill="#00005A" points="543.366865 68.7108571 543.366865 74.9121355 551.502719 74.9121355 551.502719 77.9696972 543.366865 77.9696972 543.366865 84.1709755 551.670077 84.1709755 551.670077 87.2285373 540.180576 87.2285373 540.180576 65.8227957 551.670077 65.8227957 551.670077 68.8812939 543.366865 68.8812939"></polygon>
                            <polygon id="Fill-66" fill="#00005A" points="575.826601 65.8250433 575.826601 87.6559404 575.742459 87.6559404 562.323247 72.9609147 562.323247 87.2317213 559.135109 87.2317213 559.135109 65.3156057 559.219251 65.3156057 572.639388 79.9263494 572.639388 65.8241068"></polygon>
                            <polygon id="Fill-67" fill="#00005A" points="586.533862 68.8809193 580.999003 68.8809193 580.999003 65.8224211 595.173642 65.8224211 595.173642 68.8809193 589.721075 68.8809193 589.721075 87.2290992 586.533862 87.2290992"></polygon>
                            <path d="M108.89044,84.1712565 L115.264866,84.1712565 C117.026294,84.1712565 118.535297,82.7272258 118.535297,80.9432579 C118.535297,79.1592901 117.026294,77.7152594 115.264866,77.7152594 L114.50944,77.7152594 C110.147942,77.7152594 108.135939,75.2523536 108.135939,71.7686998 C108.135939,68.2859825 110.400367,65.8230767 114.50944,65.8230767 L120.465008,65.8230767 L120.465008,68.8806384 L114.426223,68.8806384 C112.664796,68.8806384 111.23901,69.9856684 111.23901,71.7686998 C111.23901,73.5526677 112.664796,74.6567612 114.426223,74.6567612 L115.180725,74.6567612 C119.626365,74.6567612 121.639293,77.3753222 121.639293,80.9432579 C121.639293,84.4259753 119.290722,87.2288182 115.180725,87.2288182 L108.89044,87.2288182 L108.89044,84.1712565 Z" id="Fill-68" fill="#00005A"></path>
                            <path d="M209.67785,84.1712565 L216.052277,84.1712565 C217.813704,84.1712565 219.323632,82.7272258 219.323632,80.9432579 C219.323632,79.1592901 217.813704,77.7152594 216.052277,77.7152594 L215.297775,77.7152594 C210.936277,77.7152594 208.923349,75.2523536 208.923349,71.7686998 C208.923349,68.2859825 211.187778,65.8230767 215.297775,65.8230767 L221.33656,65.8230767 L221.33656,68.8806384 L215.297775,68.8806384 C213.536348,68.8806384 212.110562,69.9856684 212.110562,71.7686998 C212.110562,73.5526677 213.536348,74.6567612 215.297775,74.6567612 L216.052277,74.6567612 C220.497917,74.6567612 222.510845,77.3753222 222.510845,80.9432579 C222.510845,84.4259753 220.162275,87.2288182 216.052277,87.2288182 L209.761992,87.2288182 L209.761992,84.1712565 L209.67785,84.1712565 Z" id="Fill-69" fill="#00005A"></path>
                            <path d="M611.983949,84.1712565 L618.3593,84.1712565 C620.119803,84.1712565 621.62973,82.7272258 621.62973,80.9432579 C621.62973,79.1592901 620.119803,77.7152594 618.3593,77.7152594 L617.603874,77.7152594 C613.242376,77.7152594 611.229448,75.2523536 611.229448,71.7686998 C611.229448,68.2859825 613.493876,65.8230767 617.603874,65.8230767 L623.642658,65.8230767 L623.642658,68.8806384 L617.603874,68.8806384 C615.842446,68.8806384 614.416661,69.9856684 614.416661,71.7686998 C614.416661,73.5526677 615.842446,74.6567612 617.603874,74.6567612 L618.3593,74.6567612 C622.804015,74.6567612 624.816943,77.3753222 624.816943,80.9432579 C624.816943,84.4259753 622.468373,87.2288182 618.3593,87.2288182 L612.068091,87.2288182 L611.983949,84.1712565 Z" id="Fill-70" fill="#00005A"></path>
                            <polygon id="Fill-71" fill="#00005A" points="634.461337 68.7108571 634.461337 74.9121355 642.597191 74.9121355 642.597191 77.9696972 634.461337 77.9696972 634.461337 84.1709755 642.76455 84.1709755 642.76455 87.2285373 631.274124 87.2285373 631.274124 65.8227957 642.76455 65.8227957 642.76455 68.8812939 634.461337 68.8812939"></polygon>
                            <path d="M653.05249,68.8699627 L653.05249,75.0459565 L656.826845,75.0459565 C658.672415,75.0459565 660.014059,73.7770449 660.014059,71.9153504 C660.014059,70.1388742 658.588273,68.8699627 656.826845,68.8699627 L653.05249,68.8699627 Z M660.432918,87.1441617 L653.05249,77.7532799 L653.05249,87.2359354 L649.866201,87.2359354 L649.866201,65.824575 L656.826845,65.824575 C660.349701,65.824575 663.202196,68.44668 663.202196,71.9153504 C663.202196,75.3849572 660.432918,77.7532799 656.910987,77.9227802 L664.291415,87.2284436 L660.432918,87.2284436 L660.432918,87.1441617 Z" id="Fill-72" fill="#00005A"></path>
                            <polygon id="Fill-73" fill="#00005A" points="686.239081 65.8242004 676.173516 87.5689427 676.089374 87.5689427 666.025659 65.8242004 669.463448 65.8242004 676.089374 80.3206953 682.715301 65.8242004"></polygon>
                            <polygon id="Fill-74" fill="#00005A" points="690.739922 87.2290055 693.92621 87.2290055 693.92621 65.823264 690.739922 65.823264"></polygon>
                            <path d="M699.770821,76.4838065 C699.770821,70.2225943 704.551179,65.8230767 711.092964,65.8230767 L714.280177,65.8230767 L714.280177,68.8684643 L711.092964,68.8684643 C706.228465,68.8684643 703.041251,71.9147885 703.041251,76.5680884 C703.041251,81.1371064 706.312606,84.1834305 711.092964,84.1834305 L714.280177,84.1834305 L714.280177,87.2288182 L711.092964,87.2288182 C704.551179,87.1445363 699.770821,82.7450187 699.770821,76.4838065" id="Fill-75" fill="#00005A"></path>
                            <polygon id="Fill-76" fill="#00005A" points="723.479083 68.7108571 723.479083 74.9121355 731.614937 74.9121355 731.614937 77.9696972 723.479083 77.9696972 723.479083 84.1709755 731.782295 84.1709755 731.782295 87.2285373 720.291869 87.2285373 720.291869 65.8227957 731.782295 65.8227957 731.782295 68.8812939 723.479083 68.8812939"></polygon>
                            <g id="Group" transform="translate(0.000000, 0.000375)">
                                <g id="Group-3" transform="translate(0.000000, -0.000000)">
                                    <mask id="mask-2" fill="white">
                                        <use xlink:href="#path-1"></use>
                                    </mask>
                                    <use id="Combined-Shape" fill="#7EC13D" xlink:href="#path-1"></use>
                                    <g id="Group" mask="url(#mask-2)" fill="#95C23E">
                                        <g id="colors/6/blue">
                                            <rect id="Rectangle" x="0" y="0" width="89.0941042" height="90.8372093"></rect>
                                        </g>
                                    </g>
                                </g>
                            </g>
                        </g>
                    </g>
                </g>
                <line x1="194.012312" y1="211.830432" x2="422.012312" y2="211.830432" id="Line-7" stroke="#00005A" stroke-linecap="square"></line>
                <line x1="494.012312" y1="211.830432" x2="737.012312" y2="211.830432" id="Line-7" stroke="#00005A" stroke-linecap="square"></line>
            </g>
        </g>
    </g>
</svg>