<?xml version="1.0" encoding="UTF-8"?>
<svg width="455px" height="275px" viewBox="0 0 455 275" version="1.1" xmlns="http://www.w3.org/2000/svg" xmlns:xlink="http://www.w3.org/1999/xlink">
    <title>fotmular</title>
    <defs>
        <rect id="path-1" x="0" y="0" width="455" height="275" rx="5"></rect>
    </defs>
    <g id="Page-1" stroke="none" stroke-width="1" fill="none" fill-rule="evenodd">
        <g id="Designmönster-intropuffar-18-aug" transform="translate(-371.000000, -1028.000000)">
            <g id="fotmular" transform="translate(371.000000, 1028.000000)">
                <g id="Group-6-Copy-32">
                    <mask id="mask-2" fill="white">
                        <use xlink:href="#path-1"></use>
                    </mask>
                    <use id="Mask" fill="#FFFFFF" xlink:href="#path-1"></use>
                </g>
                <g id="formular-vektor" transform="translate(45.000000, 28.000000)">
                    <polygon id="Fill-1" fill="#96C23E" points="164.1037 192.2429 186.7217 192.2429 186.7217 169.6249 164.1037 169.6249"></polygon>
                    <polyline id="Stroke-2" stroke="#333333" stroke-width="1.892" stroke-linejoin="round" points="167.556 181.1317 172.466 186.0087 183.269 175.8587"></polyline>
                    <path d="M164.1037,192.2419 L186.7217,192.2419 L186.7217,169.6239 L164.1037,169.6239 L164.1037,192.2419 Z M165.4797,190.8669 L185.3467,190.8669 L185.3467,170.9999 L165.4797,170.9999 L165.4797,190.8669 Z" id="Fill-3" fill="#333333"></path>
                    <path d="M164.1037,221.2409 L186.7227,221.2409 L186.7227,198.6229 L164.1037,198.6229 L164.1037,221.2409 Z M165.9377,219.4059 L184.8877,219.4059 L184.8877,200.4559 L165.9377,200.4559 L165.9377,219.4059 Z" id="Fill-4" fill="#96C23E"></path>
                    <g id="Group-49">
                        <path d="M295.9805,216.3834 L200.1235,216.3834 C196.5785,216.3834 193.7045,213.5094 193.7045,209.9644 C193.7045,206.4194 196.5785,203.5454 200.1235,203.5454 L295.9805,203.5454 C299.5255,203.5454 302.3995,206.4194 302.3995,209.9644 C302.3995,213.5094 299.5255,216.3834 295.9805,216.3834" id="Fill-5" fill="#95C23F"></path>
                        <path d="M280.4458,189.1973 L200.1238,189.1973 C196.5788,189.1973 193.7048,186.3233 193.7048,182.7783 C193.7048,179.2333 196.5788,176.3593 200.1238,176.3593 L280.4458,176.3593 C283.9908,176.3593 286.8648,179.2333 286.8648,182.7783 C286.8648,186.3233 283.9908,189.1973 280.4458,189.1973" id="Fill-7" fill="#95C23F"></path>
                        <path d="M16.7694,179.5292 C16.7694,182.4772 14.3794,184.8662 11.4324,184.8662 C8.4844,184.8662 6.0954,182.4772 6.0954,179.5292 C6.0954,176.5812 8.4844,174.1922 11.4324,174.1922 C14.3794,174.1922 16.7694,176.5812 16.7694,179.5292" id="Fill-9" fill="#96C23E"></path>
                        <path d="M131.0348,214.2929 L35.1778,214.2929 C31.6328,214.2929 28.7588,211.4189 28.7588,207.8739 C28.7588,204.3289 31.6328,201.4549 35.1778,201.4549 L131.0348,201.4549 C134.5798,201.4549 137.4538,204.3289 137.4538,207.8739 C137.4538,211.4189 134.5798,214.2929 131.0348,214.2929" id="Fill-11" fill="#95C23F"></path>
                        <path d="M11.4324,195.423 C5.1184,195.423 0.0004,200.541 0.0004,206.855 C0.0004,213.168 5.1184,218.287 11.4324,218.287 C17.7454,218.287 22.8644,213.168 22.8644,206.855 C22.8644,200.541 17.7454,195.423 11.4324,195.423 M11.4324,197.257 C16.7244,197.257 21.0304,201.563 21.0304,206.855 C21.0304,212.147 16.7244,216.453 11.4324,216.453 C6.1404,216.453 1.8344,212.147 1.8344,206.855 C1.8344,201.563 6.1404,197.257 11.4324,197.257" id="Fill-13" fill="#96C23E"></path>
                        <path d="M115.4999,187.1073 L35.1779,187.1073 C31.6329,187.1073 28.7589,184.2333 28.7589,180.6883 C28.7589,177.1433 31.6329,174.2693 35.1779,174.2693 L115.4999,174.2693 C119.0449,174.2693 121.9189,177.1433 121.9189,180.6883 C121.9189,184.2333 119.0449,187.1073 115.4999,187.1073" id="Fill-15" fill="#95C23F"></path>
                        <path d="M22.864,179.6688 C22.864,185.9828 17.746,191.1008 11.432,191.1008 C5.119,191.1008 7.10542736e-15,185.9828 7.10542736e-15,179.6688 C7.10542736e-15,173.3548 5.119,168.2368 11.432,168.2368 C17.746,168.2368 22.864,173.3548 22.864,179.6688 Z" id="Stroke-17" stroke="#333333" stroke-width="1.375" stroke-linejoin="round"></path>
                        <path d="M360.7673,137.732 L1.3843,137.732 C0.6623,137.732 0.0763,137.146 0.0763,136.423 L0.0763,101.246 C0.0763,100.523 0.6623,99.937 1.3843,99.937 L360.7673,99.937 C361.4903,99.937 362.0763,100.523 362.0763,101.246 L362.0763,136.423 C362.0763,137.146 361.4903,137.732 360.7673,137.732" id="Fill-19" fill="#FEFEFE"></path>
                        <path d="M360.7673,137.732 L1.3843,137.732 C0.6623,137.732 0.0763,137.146 0.0763,136.423 L0.0763,101.246 C0.0763,100.523 0.6623,99.937 1.3843,99.937 L360.7673,99.937 C361.4903,99.937 362.0763,100.523 362.0763,101.246 L362.0763,136.423 C362.0763,137.146 361.4903,137.732 360.7673,137.732 Z" id="Stroke-21" stroke="#333333" stroke-width="1.317" stroke-linejoin="round"></path>
                        <path d="M28.8239,119.2704 C28.8239,122.8614 25.9129,125.7734 22.3209,125.7734 C18.7299,125.7734 15.8179,122.8614 15.8179,119.2704 C15.8179,115.6794 18.7299,112.7674 22.3209,112.7674 C25.9129,112.7674 28.8239,115.6794 28.8239,119.2704" id="Fill-23" fill="#96C23E"></path>
                        <path d="M53.2668,119.2704 C53.2668,122.8614 50.3558,125.7734 46.7638,125.7734 C43.1728,125.7734 40.2608,122.8614 40.2608,119.2704 C40.2608,115.6794 43.1728,112.7674 46.7638,112.7674 C50.3558,112.7674 53.2668,115.6794 53.2668,119.2704" id="Fill-25" fill="#96C23E"></path>
                        <path d="M77.7097,119.2704 C77.7097,122.8614 74.7987,125.7734 71.2067,125.7734 C67.6157,125.7734 64.7037,122.8614 64.7037,119.2704 C64.7037,115.6794 67.6157,112.7674 71.2067,112.7674 C74.7987,112.7674 77.7097,115.6794 77.7097,119.2704" id="Fill-27" fill="#96C23E"></path>
                        <path d="M102.1525,119.2704 C102.1525,122.8614 99.2415,125.7734 95.6495,125.7734 C92.0585,125.7734 89.1465,122.8614 89.1465,119.2704 C89.1465,115.6794 92.0585,112.7674 95.6495,112.7674 C99.2415,112.7674 102.1525,115.6794 102.1525,119.2704" id="Fill-29" fill="#96C23E"></path>
                        <path d="M126.5954,119.2704 C126.5954,122.8614 123.6844,125.7734 120.0924,125.7734 C116.5014,125.7734 113.5894,122.8614 113.5894,119.2704 C113.5894,115.6794 116.5014,112.7674 120.0924,112.7674 C123.6844,112.7674 126.5954,115.6794 126.5954,119.2704" id="Fill-31" fill="#96C23E"></path>
                        <path d="M151.0383,119.2704 C151.0383,122.8614 148.1273,125.7734 144.5353,125.7734 C140.9443,125.7734 138.0323,122.8614 138.0323,119.2704 C138.0323,115.6794 140.9443,112.7674 144.5353,112.7674 C148.1273,112.7674 151.0383,115.6794 151.0383,119.2704" id="Fill-33" fill="#96C23E"></path>
                        <path d="M130.1524,93.2682 L8.1244,93.2682 C4.5794,93.2682 1.7054,90.3942 1.7054,86.8492 C1.7054,83.3042 4.5794,80.4302 8.1244,80.4302 L130.1524,80.4302 C133.6974,80.4302 136.5714,83.3042 136.5714,86.8492 C136.5714,90.3942 133.6974,93.2682 130.1524,93.2682" id="Fill-35" fill="#95C23F"></path>
                        <path d="M362.2676,57.82 L1.5766,57.82 C0.8536,57.82 0.2676,57.234 0.2676,56.511 L0.2676,21.334 C0.2676,20.611 0.8536,20.025 1.5766,20.025 L362.2676,20.025 L362.2676,57.82 Z" id="Fill-37" fill="#FEFEFE"></path>
                        <path d="M362.2676,57.82 L1.5766,57.82 C0.8536,57.82 0.2676,57.234 0.2676,56.511 L0.2676,21.334 C0.2676,20.611 0.8536,20.025 1.5766,20.025 L362.2676,20.025 L362.2676,57.82 Z" id="Stroke-39" stroke="#333333" stroke-width="1.317" stroke-linejoin="round"></path>
                        <path d="M130.344,12.838 L8.316,12.838 C4.771,12.838 1.897,9.964 1.897,6.419 C1.897,2.874 4.771,0 8.316,0 L130.344,0 C133.889,0 136.763,2.874 136.763,6.419 C136.763,9.964 133.889,12.838 130.344,12.838" id="Fill-41" fill="#95C23F"></path>
                        <polyline id="Stroke-43" stroke="#95C23F" stroke-width="3.123" stroke-linecap="round" stroke-linejoin="round" points="328.7699 34.9732 338.6529 45.2512 348.5359 34.6972"></polyline>
                        <line x1="18.2597" y1="40.0057" x2="118.4077" y2="40.0057" id="Fill-45" fill="#D4E4B2"></line>
                        <path d="M118.4079,46.4246 L18.2599,46.4246 C14.7149,46.4246 11.8409,43.5506 11.8409,40.0056 C11.8409,36.4606 14.7149,33.5866 18.2599,33.5866 L118.4079,33.5866 C121.9529,33.5866 124.8269,36.4606 124.8269,40.0056 C124.8269,43.5506 121.9529,46.4246 118.4079,46.4246" id="Fill-47" fill="#DBE6B6"></path>
                    </g>
                </g>
            </g>
        </g>
    </g>
</svg>