{
	"global": {
		"typography": {
			"line-height": {
				"base": {
					"value": "1.5",
					"name": "",
					"comment": ""
				},
				"small": {
					"value": "1",
					"name": "",
					"comment": ""
				},
				"large": {
					"value": "2",
					"name": "",
					"comment": ""
				}
			},
			"font-size": {
				"base": {
					"value": "1rem",
					"name": "",
					"comment": ""
				},
				"small": {
					"value": "0.875rem",
					"name": "",
					"comment": ""
				},
				"smaller": {
					"value": "0.75rem",
					"name": "",
					"comment": ""
				},
				"large": {
					"value": "1.125rem",
					"name": "",
					"comment": ""
				},
				"larger": {
					"value": "1.25rem",
					"name": "",
					"comment": ""
				},
				"largest": {
					"value": "1.375rem",
					"name": "",
					"comment": ""
				},
				"largest-2": {
					"value": "1.5rem",
					"name": "",
					"comment": ""
				},
				"largest-3": {
					"value": "1.75rem",
					"name": "",
					"comment": ""
				},
				"largest-4": {
					"value": "2rem",
					"name": "",
					"comment": ""
				},
				"largest-5": {
					"value": "2.25rem",
					"name": "",
					"comment": ""
				},
				"largest-6": {
					"value": "2.5rem",
					"name": "",
					"comment": ""
				},
				"interaction-small": {
					"value": "0.875rem",
					"name": "",
					"comment": ""
				},
				"interaction-medium": {
					"value": "1rem",
					"name": "",
					"comment": ""
				},
				"interaction-large": {
					"value": "1.125rem",
					"name": "",
					"comment": ""
				}
			},
			"font-weight": {
				"regular": {
					"value": "400",
					"name": "",
					"comment": ""
				},
				"light": {
					"value": "300",
					"name": "",
					"comment": ""
				},
				"semibold": {
					"value": "600",
					"name": "",
					"comment": ""
				},
				"bold": {
					"value": "700",
					"name": "",
					"comment": ""
				}
			},
			"font-family": {
				"default": {
					"value": "\"Open Sans\"",
					"name": "",
					"comment": ""
				},
				"mono": {
					"value": "Consolas, Monaco, 'Andale Mono', 'Ubuntu Mono', monospace",
					"name": "",
					"comment": ""
				}
			},
			"text-decoration": {
				"default": {
					"value": "none",
					"name": "",
					"comment": ""
				},
				"link": {
					"value": "underline",
					"name": "",
					"comment": ""
				}
			}
		}
	}
}
